,Customer ID,Account Num,Meter Number,Customer Name,Project Name,Date,Usage,Price,Balance After,type,manual_meter_update,longitude,latitude
0,1411238,#863913456,0013A20041672122,Alieu  J Smart,Senehun,2020-12-08,0.3,1971.21,43497.188563,grid,False,11.9445,8.16785
1,1411194,#190704863,0013A20041671B15,Kychom Clinic,WP1 CLINICS,2020-12-08,5.0,0.0,-119016.37897,grid,False,0.0,0.0
2,1411195,#941728677,0013A20041515896,SENEHUN  CLINIC,WP1 CLINICS,2020-12-08,5.0,0.0,-224523.575600000005101,grid,True,11.94192,8.1701
3,1411196,#528871213,0013A20041C33700,Rachael Abie Bangali 2,Senehun,2020-12-08,0.3,1971.21,-2569.4922782857145772,grid,False,11.94382,8.16753
4,1411197,#050162957,0013A20041C336CF,Solomon Abu Gegbe compound,Senehun,2020-12-08,0.3,1971.21,4076.37652,grid,False,11.94632,8.16906
5,1411177,#240700742,xxxxx,Test  Fake Customer,WP1 CLINICS,2020-12-08,5.0,0.0,5.0,grid,False,0.0,0.0
6,1411178,#427778016,0013A20041BED068,Bradford Clinic,WP1 CLINICS,2020-12-08,5.0,0.0,0,grid,True,0.0,0.0
7,1411179,#841975952,0013A20041BEAA46,Bauya Clinic,WP1 CLINICS,2020-12-08,5.0,0.0,-144739.19167,grid,True,0.0,0.0
8,1411180,#626315185,0013A20041BE92D7,Sendugu  (Saio Tholley)  Clinic,WP1 CLINICS,2020-12-08,5.0,0.0,-113546.67869,grid,True,12.49719,8.75287
9,1411181,#473989239,0013A20041B8F690,Bomotoke Clinic,WP1 CLINICS,2020-12-08,5.0,0.0,-3135161.793093333142896,grid,True,0.0,0.0
10,1411182,#689491303,0013A20041B8F62D,Kamasasa Clinic,WP1 CLINICS,2020-12-08,5.0,0.0,-5038974002.16087,grid,True,0.0,0.0
11,1411183,#485964115,0013A20041B8D3DD,Njama Theresa Alieu CHO Clinic,WP1 CLINICS,2020-12-08,5.0,0.0,-71926.85454,grid,True,0.0,0.0
12,1411184,#195155927,0013A20041B89A79,Gbalamuya Clinic,WP1 CLINICS,2020-12-08,5.0,0.0,0,grid,False,0.0,0.0
13,1411185,#158082961,0013A20041B12161,Mano Dasse Clinic,WP1 CLINICS,2020-12-08,5.0,0.0,0,grid,True,0.0,0.0
14,1411186,#040478571,0013A20041B11E7F,Mokelleh Clinic,WP1 CLINICS,2020-12-08,5.0,0.0,0,grid,True,0.0,0.0
15,1411187,#163472849,0013A20041ACFC5E,Kamasondo  H.S Kanu Clinic,WP1 CLINICS,2020-12-08,5.0,0.0,-21977.70951,grid,True,12.51272,8.8622
16,1411188,#172814921,0013A20041ACF139,Masimera Mr. Kho   Clinic,WP1 CLINICS,2020-12-08,5.0,0.0,0,grid,True,0.0,0.0
17,1411189,#907661033,0013A20041A18CFD,Bamoi Munu Clinic,WP1 CLINICS,2020-12-08,5.0,0.0,-3241874.635553232301052505,grid,True,0.0,0.0
18,1411190,#892886959,0013A200419579B3,Malekuray  (Thomas Katta) Clinic,WP1 CLINICS,2020-12-08,5.0,0.0,0,grid,False,0.0,0.0
19,1411191,#493449043,0013A20041815026,Conakry Dee Clinic,WP1 CLINICS,2020-12-08,5.0,0.0,-806564.253760000005101,grid,True,0.0,0.0
20,1411192,#088924648,0013A20041814D32,Petifu Clinic,WP1 CLINICS,2020-12-08,5.0,0.0,-2473369.620971100010202,grid,True,0.0,0.0
21,1411193,#365497413,0013A20041766A3A,Kangahun (Augustine Blango) Clinic,WP1 CLINICS,2020-12-08,5.0,0.0,-10353.80576,grid,True,0.0,0.0
22,1411198,#507929885,0013A20041BED085,Moses (Office) Gegbeh,Senehun,2020-12-08,0.0,900.0,3121.504254628577594223,grid,False,11.93962,8.16861
23,1411199,#512719162,0013A20041AB38D8,James  B Lahai,Senehun,2020-12-08,0.3,1971.21,23428.7744499999994899,grid,False,11.94648,8.1684
24,1411200,#131051727,0013A20041AB38CF,Patrick L Jonny,Senehun,2020-12-08,0.3,1971.21,1181.558891428063744988,grid,False,11.94174,8.16794
25,1411201,#934015280,0013A20041AB38BC,Momodu Mustapha kongoteh,Senehun,2020-12-08,0.3,1971.21,280.505787571939065663,grid,False,11.95015,8.16727
26,1411202,#336150317,0013A20041AB384A,Joseph kondolomo,Senehun,2020-12-08,0.3,1971.21,8340.337076,grid,False,11.94623,8.16852
27,1411203,#596966372,0013A20041AB383C,Briama Kobba,Senehun,2020-12-08,0.3,1971.21,1363.18797000000086717,grid,False,11.94905,8.1676
28,1411204,#948496838,0013A20041AB3735,Robert Squire,Senehun,2020-12-08,0.3,1971.21,-887.73383,grid,False,11.94755,8.16824
29,1411205,#281611574,0013A20041A77EEF,Dimoh Harding,Senehun,2020-12-08,0.3,1971.21,-1649.587617428571840295,grid,False,11.94854,8.16834
30,1411271,#338342589,0013A200415D795F,Mohamed Samba,Senehun,2020-12-08,0.3,1971.21,-40840.8718491666576549,grid,False,11.94887,8.16822
31,1411272,#091897100,0013A200415D795D,Francis Lansana,Senehun,2020-12-08,0.3,1971.21,-11872.26331,grid,False,11.95072,8.16935
32,1411273,#274628355,0013A200415D795B,Ibrahim Fofanah,Senehun,2020-12-08,0.3,1971.21,5032.1318300000010202,grid,False,11.94137,8.16927
33,1411274,#466685086,0013A200415D7959,Bockarie Kallon,Senehun,2020-12-08,0.3,1971.21,-9832.32,grid,False,11.94361,8.1674
34,1411275,#873275129,0013A200415B8C8D,Kadiatu Mohamed Koroma,Senehun,2020-12-08,0.3,1971.21,348.7489517147975632,grid,False,11.94972,8.1671
35,1411276,#222594378,0013A200415B8C8C,Samuel Yavanah,Senehun,2020-12-08,0.3,1971.21,6008.92060142857385519,grid,False,11.94169,8.16812
36,1411277,#213814330,0013A200415B8C84,Alhaji Abubakarr Fofanah,Senehun,2020-12-08,0.3,1971.21,18872.81223371326767128,grid,False,11.94664,8.16822
37,1411278,#243448122,0013A200415B8C7A,Jeremy Lamboi,Senehun,2020-12-08,1.0,5541.91,-267957.434268952142662809523809038,grid,False,11.9488,8.16808
38,1411279,#883579401,0013A200415B8C77,Doris Bullie,Senehun,2020-12-08,0.3,1971.21,6993.19158143010430822,grid,False,11.94774,8.16821
39,1411280,#933305964,0013A200415B8C73,Solomon Abu Mosque,Senehun,2020-12-08,0.3,1971.21,1781.6427890000010202,grid,False,11.74708,8.16851
40,1411281,#750017356,0013A200415B8C69,Mohamed Bangalie  (Kondawa),Senehun,2020-12-08,0.3,1971.21,5301.645997714286657242,grid,False,11.95313,8.17
41,1411282,#408754222,0013A200415B8C41,George Sam    (Headteacher),Senehun,2020-12-08,0.3,1971.21,-34500.9773,grid,False,11.95177,8.17017
42,1411283,#072133874,0013A200415B8C0F,Joseph Pessima,Senehun,2020-12-08,0.3,1971.21,6760.93708285765174019,grid,False,11.95264,8.1698
43,1411284,#787647687,0013A200415B8BFF,Isata Simbo,Senehun,2020-12-08,0.3,1971.21,2852.476374285713557,grid,False,11.94861,8.1677711
44,1411285,#567272653,0013A200415B8A9C,Hawa Zoro,Senehun,2020-12-08,0.3,1971.21,-1254.744919999999882677,grid,False,11.94364,8.16749
45,1411286,#539780220,0013A200415B89B6,Andrew James,Senehun,2020-12-08,0.3,1971.21,-81406.03877999999959192,grid,False,11.94882,8.16836
46,1411287,#881754767,0013A200415B89B4,Claude K Lamin,Senehun,2020-12-08,0.3,1971.21,-935.41388142857196782,grid,False,11.94369,8.16821
47,1411288,#793352589,0013A20041555B1F,Mamie Koroma,Senehun,2020-12-08,0.3,1971.21,1886.6933728566315912,grid,False,11.94747,8.16868
48,1411289,#830994004,0013A200415559CA,Prince B Lamin,Senehun,2020-12-08,0.3,1971.21,7188.881274283677217396,grid,False,11.94627,8.16858
49,1411290,#902899151,0013A200415559C0,Vandy Lukulay,Senehun,2020-12-08,0.3,1971.21,9793.889760000003580902,grid,False,11.95074,8.17006
50,1411291,#257657741,0013A200415559BF,Yamba Ngeba 2,Senehun,2020-12-08,0.3,1971.21,-2129.8575089999989798,grid,False,11.94417,8.16779
51,1411292,#252499944,0013A200415559A8,John Gegbeh         (BORBOH),Senehun,2020-12-08,0.3,1971.21,13553.9999657112248228,grid,False,11.94959,8.1682
52,1411293,#600002475,0013A200415559A3,Pessima Kogbai (CMB),Senehun,2020-12-08,0.3,1971.21,34267.68,grid,False,-11.95175,8.16944
53,1411294,#456869310,0013A2004155565C,Mis Gbassay Bangura,Senehun,2020-12-08,0.3,1971.21,1515.87588566451079703,grid,False,11.94839,8.16795
54,1411295,#994183899,0013A2004155371C,Evon M. Saidu,Senehun,2020-12-08,0.3,1971.21,-16680.14777485713970181,grid,False,11.94378,8.16812
55,1411296,#460237019,0013A20041553701,Alpha Samking,Senehun,2020-12-08,0.3,1971.21,6655.7728428571411811,grid,False,11.94713,8.16902
56,1411297,#945104162,0013A20041553700,Margaret Alie,Senehun,2020-12-08,0.3,1971.21,-33866.59966499999994899,grid,False,11.94657,8.16822
57,1411298,#927634769,0013A2004154DF60,Ibrahim S. Kamara,Senehun,2020-12-08,0.3,1971.21,7783.97117300627854899,grid,False,11.95161,8.16945
58,1411299,#800234835,0013A2004154DF5B,Adamah Swarray,Senehun,2020-12-08,0.3,1971.21,5555.58457228571396508,grid,False,11.94835,8.16809
59,1411300,#023729785,0013A2004154DF50,James S. Tommy    (Kiosk),Senehun,2020-12-08,0.3,1971.21,-23921.90625999948979798,grid,False,11.94735,8.16847
60,1411301,#600972896,0013A2004154DF3F,Dauda Kamanda,Senehun,2020-12-08,0.3,1971.21,-37086.549097714286443,grid,False,11.94978,8.16865
61,1411302,#472643026,0013A20041548FD6,John  A  Lahai,Senehun,2020-12-08,0.3,1971.21,2330.77487428673411407,grid,False,11.94653,8.16811
62,1411336,#602539751,0013A20041BEABEE,Pa Alimamy Conteh,Sendugu,2020-12-08,0.3,1971.21,-146.1136839999989798,grid,False,12.62938,9.07147
63,1411337,#297365053,0013A20041BEAA8A,Hassan Foday Bangura (Natty),Sendugu,2020-12-08,0.3,1971.21,4960.1006340000015303,grid,False,12.62963,9.06821
64,1411338,#511015552,0013A20041BEAA64,Alpha Khamil Kanu,Sendugu,2020-12-08,0.3,1971.21,-252.03002399999841869,grid,False,12.63131,9.07071
65,1411339,#998506220,0013A20041BEAA5A,Usman Sesay,Sendugu,2020-12-08,0.3,1971.21,-1217.0418309999984697,grid,False,12.63092,9.06967
66,1411340,#919103710,0013A20041BEAA47,Andrew Tarawalie 2,Sendugu,2020-12-08,0.3,1971.21,2479.8309300000010202,grid,False,12.6312,9.06936
67,1411341,#279934922,0013A20041BEAA07,Sheka  Sesay (sheka profit),Sendugu,2020-12-08,0.3,1971.21,-802.33960699999882677,grid,False,12.63054,9.0692
68,1411342,#272195300,0013A20041BEA9FF,Gibrilla Labby Kamara,Sendugu,2020-12-08,2.0,10642.91,46147.9474300000010202,grid,False,12.62965,9.0707
69,1411343,#868416549,0013A20041BEA9E6,Abdul  Karim Kamara,Sendugu,2020-12-08,0.3,1971.21,7320.7617700000010202,grid,False,12.63098,9.07067
70,1411344,#311728388,0013A20041BEA9D3,Mohamed S Kamara,Sendugu,2020-12-08,0.3,1971.21,17690.4994300000020404,grid,False,12.63059,9.0693
71,1411345,#938611374,0013A20041BEA9B8,Sorie Issa Kamara,Sendugu,2020-12-08,0.3,1971.21,22069.0283600000015303,grid,False,12.62956,9.07096
72,1411346,#020653784,0013A20041BEA9AD,Pa Issa Kamara,Sendugu,2020-12-08,0.3,1971.21,1889.54461000000107121,grid,False,0.0,0.0
73,1411347,#910159727,0013A20041BEA9A3,Abu Conteh,Sendugu,2020-12-08,0.3,1971.21,8313.4891600000015303,grid,False,12.63136,9.07097
74,1411348,#710595998,0013A20041BEA999,Mariatu Sesay ( Marie man na house),Sendugu,2020-12-08,0.3,1971.21,11896.87992000000107121,grid,False,12.62921,9.06891
75,1411349,#634326947,0013A20041BEA971,Kadiatu Conteh,Sendugu,2020-12-08,0.3,1971.21,-138.4615599999984697,grid,False,12.63139,9.07102
76,1411350,#725188595,0013A20041BEA96A,Abdul Kamara,Sendugu,2020-12-08,0.3,1971.21,-24110.9100189999989798,grid,False,12.62974,9.07052
77,1411351,#080571836,0013A20041BEA940,Komrabai Sillah (Charman),Sendugu,2020-12-08,0.3,1971.21,7054.5516300000005101,grid,False,12.63155,9.07052
78,1411352,#312948275,0013A20041BEA893,Pa Sheku Jalloh,Sendugu,2020-12-08,0.3,1971.21,-103.0771999999984697,grid,False,12.6299,9.06976
79,1411353,#070866366,0013A20041BEA758,Abass Kamara 2,Sendugu,2020-12-08,0.3,1971.21,4488.23873000000112222,grid,False,12.631,9.07044
80,1411354,#599714905,0013A20041BE9FF2,Chernor Jalloh,Sendugu,2020-12-08,0.3,1971.21,19534.00953100000158131,grid,False,12.62941,9.06887
81,1411355,#772740205,0013A20041BE9FDA,Mohamed Jalloh (Gboidoh),Sendugu,2020-12-08,0.3,1971.21,19130.2991600000015303,grid,False,12.63066,9.06959
82,1411356,#025840747,0013A20041BE9464,Abubakarr Sidique Bangura 2,Sendugu,2020-12-08,0.3,1971.21,-17872.4937399999989798,grid,False,12.26868,9.068
83,1411357,#546404413,0013A20041BE9436,Sorie Mansaray (kingdom),Sendugu,2020-12-08,2.0,10642.91,14560.7427700000005101,grid,False,12.63004,9.06822
84,1411358,#918210427,0013A20041BE92D1,Yusif Conteh ,Sendugu,2020-12-08,0.3,1971.21,24056.9589100000010202,grid,False,12.62974,9.07052
85,1411359,#776813272,0013A20041BE903F,Abubakarr Sidique Bangura,Sendugu,2020-12-08,0.3,1971.21,-20537.3864699999979596,grid,False,12.63164,9.06906
86,1411360,#461564499,0013A20041BE902E,Yeabu Daramy 1,Sendugu,2020-12-08,0.5,2991.41,21520.4557100000010202,grid,False,12.63012,9.07008
87,1411361,#438095299,0013A20041BB3193,Mayealie Kamara,Sendugu,2020-12-08,0.3,1971.21,13736.4838300000030606,grid,False,12.63098,9.07077
88,1411362,#559302740,0013A20041B8D430,Alhaji  Umaru Kamara (  Central Mosque),Sendugu,2020-12-08,0.3,1971.21,28920.03216700000117323,grid,False,12.63052,9.07033
89,1411363,#022784634,0013A20041B8C2C5,Yeabu Musa Turay,Sendugu,2020-12-08,0.3,1971.21,13635.0103100000010202,grid,False,12.62974,9.06978
90,1411364,#405810607,0013A20041B88CB1,Sorieba Sesay,Sendugu,2020-12-08,0.3,1971.21,17458.0903400000015303,grid,False,12.6312,9.07092
91,1411365,#664888326,0013A20041B88662,Ibrahim Sorie Dumbuya,Sendugu,2020-12-08,0.3,1971.21,28326.228930000001509896,grid,False,12.62877,9.6814
92,1411366,#938333165,0013A20041B88643,Memunatu Sesay,Sendugu,2020-12-08,0.3,1971.21,2360.3645100000010202,grid,False,12.62926,9.06901
93,1411367,#830624167,0013A20041B8863F,Abdul R Jalloh,Sendugu,2020-12-08,0.3,1971.21,6031.1874100000015303,grid,False,12.62916,9.06875
94,1411401,#391235858,0013A20041B8D8AC,Sheik H Kamara Shop,Petifu Junction,2020-12-08,0.3,1971.21,5031.468759999492527015,grid,False,13.11321,8.69139
95,1411402,#588342420,0013A20041B8D8AA,Daniel P Samura,Petifu Junction,2020-12-08,0.3,1971.21,26758.3372499999994899,grid,False,13.10819,8.69792
96,1411403,#990794285,0013A20041B8D89C,Moses Henry Kamara,Petifu Junction,2020-12-08,0.3,1971.21,642.642312000000607019,grid,False,13.10657,8.69566
97,1411404,#473873099,0013A20041B8D44D,Mamound Turay,Petifu Junction,2020-12-08,0.3,1971.21,31065.036900000511456866,grid,False,-13.11314,8.69135
98,1411405,#957806412,0013A20041B8D3E8,Michael Bangura,Petifu Junction,2020-12-08,0.3,1971.21,2591.8450500015308101,grid,False,13.11434,8.70009
99,1411406,#791924878,0013A20041B8D383,Santigie M Kamara,Petifu Junction,2020-12-08,0.3,1971.21,-143223.32992599999954091,grid,False,13.10607,8.69314
100,1411407,#750821596,0013A20041B88E48,Amadu Sankoh,Petifu Junction,2020-12-08,0.3,1971.21,5713.4730500010202,grid,False,13.10933,8.6987
101,1411408,#387083792,0013A20041B88E20,Saidu  Bai Turay,Petifu Junction,2020-12-08,0.3,1971.21,1896.71688,grid,False,-13.10945,8.69669
102,1411409,#561357302,0013A20041B88D9F,Saidu A Kargbo,Petifu Junction,2020-12-08,0.3,1971.21,-55488.30158,grid,False,13.10464,8.69891
103,1411410,#976324723,0013A20041B88D79,Hassan Koroma,Petifu Junction,2020-12-08,0.3,1971.21,2727.88746700153075909,grid,False,-13.11496,8.70036
104,1411411,#581078653,0013A20041B88CA4,Abdul Shema Kamara,Petifu Junction,2020-12-08,0.3,1971.21,1040.644171,grid,False,13.10903,8.69493
105,1411412,#724495846,0013A20041B88C98,Sheka Kamara,Petifu Junction,2020-12-08,0.3,1971.21,5810.0826600005101,grid,False,13.10957,8.69865
106,1411413,#732461284,0013A20041B884E4,Alpha Kamara,Petifu Junction,2020-12-08,0.3,1971.21,7138.361950000000999796,grid,False,13.11033,8.6995
107,1411414,#418172249,0013A20041B11B75,Mohamed  Kamara,Petifu Junction,2020-12-08,0.3,1971.21,9551.035161714287100300285713557,grid,False,13.10657,8.69514
108,1411415,#420879330,0013A20041A18DA0,Betty Agess Komeh,Petifu Junction,2020-12-08,1.0,6041.91,2783.027995285697244002,grid,False,0.0,0.0
109,1411416,#760169682,0013A200419AD586,Kelfa Kamara(1/2,Petifu Junction,2020-12-08,0.3,1971.21,-83511.659938857140084385,grid,False,0.0,0.0
110,1411417,#155387384,0013A200419AD582,Momoh C. Bangura,Petifu Junction,2020-12-08,0.3,1971.21,6450.70689728576721952,grid,False,13.10485,8.69779
111,1411418,#727271758,0013A200419AD57B,Ya Alimamy Kamara,Petifu Junction,2020-12-08,0.3,1971.21,6989.013680856631922765,grid,False,13.10634,8.69686
112,1411419,#021180112,0013A200419AD578,Chief Pa Alimamy Koroma,Petifu Junction,2020-12-08,0.3,1971.21,5841.973044000003300347,grid,False,13.11442,8.693
113,1411420,#790076518,0013A200419AD576,Abdul N. Kamara-Buju,Petifu Junction,2020-12-08,0.3,1971.21,6846.16001214285708456,grid,False,13.0,8.0
114,1411421,#666130661,0013A200419AD574,Kandeh Samura,Petifu Junction,2020-12-08,0.3,1971.21,-6277.0104819948995101,grid,False,13.10986,8.69595
115,1411422,#077148342,0013A200419AD56C,Yamakoroh Kamara,Petifu Junction,2020-12-08,0.3,1971.21,4755.846676443005101,grid,False,0.0,0.0
116,1411423,#878740866,0013A200419AD56A,Ibrahim K Kargbo,Petifu Junction,2020-12-08,0.3,1971.21,507.61414975170410031,grid,False,-13.1044,8.69937
117,1411424,#231811824,0013A200419AD565,Ya-Tankarie Kamara,Petifu Junction,2020-12-08,0.3,1971.21,2315.1264525739796544,grid,False,13.10526,8.69774
118,1411425,#023766371,0013A200419AD564,Art Koroma,Petifu Junction,2020-12-08,0.3,1971.21,34132.23429691496181821,grid,False,13.10486,8.698
119,1411426,#848756607,0013A200419AD560,Umaru Bai Kallay-councilor,Petifu Junction,2020-12-08,0.3,1971.21,3188.626931714286881686,grid,False,13.10486,8.69752
120,1411427,#412550590,0013A200419AD557,Haja Ya-Kadiatu Barrie,Petifu Junction,2020-12-08,0.3,1971.21,7479.0885271429623692,grid,False,0.0,0.0
121,1411428,#642468739,0013A200419AD556,Pa Santigie Kamara,Petifu Junction,2020-12-08,0.3,1971.21,-1762.077335428572187163,grid,False,0.0,0.0
122,1411429,#888384819,0013A200419AD552,Umu Alicious Kamara,Petifu Junction,2020-12-08,0.3,1971.21,-56794.125084285708476404,grid,False,0.0,0.0
123,1411430,#873775244,0013A200419AD54C,Fatmata Kargbo Fatu Alpha,Petifu Junction,2020-12-08,0.3,1971.21,6103.648335719388085726,grid,False,0.0,0.0
124,1411431,#824018311,0013A200419AD547,Pa Santigie Bockarie Kamara-Central Mosque,Petifu Junction,2020-12-08,0.3,2471.21,-16190.86887067100010202,grid,False,13.11382,8.69298
125,1411432,#974558804,0013A200419AD406,Salamatu J Jumu,Petifu Junction,2020-12-08,0.3,1971.21,8684.74713286224733311,grid,False,0.0,0.0
126,1411502,#997350808,0013A20041957946,Andrew S Kargbo,Petifu Junction,2020-12-08,0.2,1461.11,-44413.34409492856222491,grid,False,0.0,0.0
127,1411503,#564079787,0013A2004195793D,Ma Fudia Kamara,Petifu Junction,2020-12-08,0.2,1461.11,1790.520988568878668974285713557,grid,False,13.10511,8.69536
128,1411504,#571541771,0013A20041957932,Moreba Bangura,Petifu Junction,2020-12-08,0.2,1461.11,3809.761478737700619114285713557,grid,False,13.10645,8.69541
129,1411505,#637772874,0013A20041957929,Nabie B Turay,Petifu Junction,2020-12-08,0.2,1461.11,-20799.75728999999933687,grid,False,0.0,0.0
130,1411506,#805938411,0013A20041957920,Chief Pa  Kombra-Bai Kamara,Petifu Junction,2020-12-08,0.2,1461.11,16756.555667105453744056666668367,grid,False,-13.11479,8.69228
131,1411507,#059796947,0013A2004195791D,Saffiatu Mansaray,Petifu Junction,2020-12-08,0.2,1461.11,11175.626537904765548333333331633,grid,False,0.0,0.0
132,1411508,#483429034,0013A2004195745C,Mr. M.O. Brown,Petifu Junction,2020-12-08,0.8,4521.71,-3121.051410290793526305714286443,grid,False,13.10758,8.69619
133,1411509,#229079427,0013A20041957453,Babah Bangura,Petifu Junction,2020-12-08,2.0,10642.91,-323089.1954586428445361,grid,False,0.0,0.0
134,1411510,#152589091,0013A20041957451,Abdul Salam Kamara,Petifu Junction,2020-12-08,0.5,2991.41,36815.780412857147261492,grid,False,0.0,0.0
135,1411511,#919555059,0013A2004195744D,Santigie Y Sesay,Petifu Junction,2020-12-08,0.2,1461.11,-151818.018880428562141836571427114,grid,False,0.0,0.0
136,1411512,#296049582,0013A20041957449,Yusif D Kamara,Petifu Junction,2020-12-08,0.2,1461.11,1202.4362511428638964354,grid,False,0.0,0.0
137,1411513,#318491547,0013A2004181503A,Ahmed Lamin  Bangura-SLMB Primary School,Petifu Junction,2020-12-08,0.2,1461.11,3120.19861328469376508,grid,False,13.10477,8.693
138,1411514,#280948928,0013A20041815039,Mohamed  Kanu,Petifu Junction,2020-12-08,0.2,1461.11,4684.088915520417995744285713557,grid,False,13.10582,8.69378
139,1411515,#865208286,0013A20041815032,Sheik Sidique Kargbo,Petifu Junction,2020-12-08,0.2,1461.11,7518.15354414286045122,grid,False,13.10684,8.69325
140,1411516,#986830189,0013A2004181502D,Fatmata I Bangura,Petifu Junction,2020-12-08,0.2,1461.11,6988.632924285715474976,grid,False,13.23942,8.69458
141,1411517,#011516295,0013A20041815029,Emma Abishir Kamara,Petifu Junction,2020-12-08,0.2,1461.11,-1337.962978571414325793,grid,False,-13.10622,8.69413
142,1411518,#621769638,0013A20041815024,Mabinty Kamara,Petifu Junction,2020-12-08,0.2,1461.11,12730.30960000000209141,grid,False,13.10708,8.69255
143,1411519,#727057044,0013A2004181501F,Abu Sesay,Petifu Junction,2020-12-08,0.2,1461.11,1272.619615715816014285714286443,grid,False,13.1072,8.69514
144,1411520,#574125613,0013A2004181501A,Mr. Santigie K Conteh,Petifu Junction,2020-12-08,0.2,1461.11,-1463.98351865238406642,grid,False,13.10806,8.69482
145,1411521,#309414570,0013A20041815018,Rugiatu Kamara,Petifu Junction,2020-12-08,0.2,1461.11,30026.657930000000030606,grid,False,13.10516,8.69523
146,1411522,#743103578,0013A20041815017,Mohamed  Bendo Kamara,Petifu Junction,2020-12-08,1.2,6562.11,22077.11926285714072201,grid,False,13.1092,8.69384
147,1411523,#485113555,0013A20041815016,Mohamed  Abu Turay,Petifu Junction,2020-12-08,0.2,1461.11,11168.914281428569701518571427114,grid,False,13.11028,8.6965
148,1411524,#352055314,0013A20041815013,Pa Issa Koroma,Petifu Junction,2020-12-08,0.2,1461.11,-93082.3326199999790859,grid,True,0.0,0.0
149,1411525,#792658787,0013A20041815011,Ibrahim Papa Kamara,Petifu Junction,2020-12-08,0.2,1461.11,7824.331775719394665287285713557,grid,False,0.0,0.0
150,1411526,#306033066,0013A20041815010,Saidu Koroma,Petifu Junction,2020-12-08,0.2,1461.11,-131523.9156866666678569,grid,False,13.10657,8.69672
151,1411527,#394312252,0013A2004181500F,Santigie Bockarie Kamara,Petifu Junction,2020-12-08,0.2,1461.11,6029.771404170049192681428572886,grid,False,0.0,0.0
152,1411528,#709949976,0013A2004181500C,Ibrahim Abdul Joe Kamara,Petifu Junction,2020-12-08,0.2,1461.11,3837.293375714293523188,grid,False,0.0,0.0
153,1411529,#429551887,0013A20041814DC1,Ramatu Jalloh,Petifu Junction,2020-12-08,0.2,1461.11,9828.810128561228460256,grid,False,13.0,8.0
154,1411530,#437997762,0013A20041814D7C,Ya Haja Neneh Turay,Petifu Junction,2020-12-08,0.2,1461.11,6916.23578171428149503,grid,False,13.1154,8.6922
155,1411531,#998144803,0013A20041814D7B,Isha Conteh,Petifu Junction,2020-12-08,0.2,1461.11,3760.4538490000005101,grid,False,0.0,0.0
156,1411532,#854340042,0013A20041814D4B,Zainab Kanu,Petifu Junction,2020-12-08,0.2,1461.11,3638.365246999975183635,grid,False,0.0,0.0
157,1411533,#002491199,0013A20041814D4A,Adamsay Bangura,Petifu Junction,2020-12-08,0.2,1961.11,13932.412996413263351619,grid,False,0.0,0.0
158,1411566,#926881704,0013A20041B8DAA7,Maungbe Amare,Njama,2020-12-08,0.2,1461.11,-26994.23030999999954091,grid,False,11.93935,8.07955
159,1411567,#960178872,0013A20041B8DAA1,Adama H.S Lawundeh,Njama,2020-12-08,0.2,1461.11,7000.03749900000010202,grid,False,11.93974,8.0821
160,1411568,#068214671,0013A20041B8DA5C,Anthony  Lahai,Njama,2020-12-08,0.2,1461.11,952.464240000001152826,grid,False,11.93897,8.081144
161,1411569,#368251487,0013A20041B8DA59,Robertt Piawai,Njama,2020-12-08,0.2,1461.11,708.95146179999989798,grid,False,11.93953,8.08196
162,1411570,#422698179,0013A20041B8DA37,Iye Sefoi,Njama,2020-12-08,0.2,1461.11,-18326.471249999999290961,grid,False,11.93798,8.053
163,1411571,#207244132,0013A20041B8DA34,Augustine Mosema,Njama,2020-12-08,0.2,1461.11,17653.183386486672277766666668367,grid,False,11.93694,8.08034
164,1411572,#087064757,0013A20041B8DA31,Doris Yavanah,Njama,2020-12-08,0.2,1461.11,10533.3184,grid,False,11.94094,8.08115
165,1411573,#565261824,0013A20041B8DA28,Aladura Church,Njama,2020-12-08,0.2,1461.11,-28600.19323999999994899,grid,False,11.9394,8.07998
166,1411574,#891697969,0013A20041B8DA25,Munda Bassie  (Jango),Njama,2020-12-08,0.2,1461.11,12448.3820100000015303,grid,False,11.9396,8.08156
167,1411575,#857554725,0013A20041B8DA1C,Winnifred kailie,Njama,2020-12-08,0.2,1461.11,5203.31497,grid,False,11.0,8.0
168,1411576,#270872104,0013A20041B8DA1A,Brima Lawundeh 1,Njama,2020-12-08,0.2,1461.11,155.26647000000015303,grid,False,11.93968,8.08106
169,1411577,#557951659,0013A20041B8D9BB,Karimu Yomboi,Njama,2020-12-08,0.2,1461.11,25635.83366951666387812,grid,False,11.93933,8.08079
170,1411578,#502764013,0013A20041B8D997,Joseph  Gbouma,Njama,2020-12-08,0.2,1461.11,-68276.18016,grid,False,11.93731,8.08062
171,1411579,#841183587,0013A20041B8D995,Philip A. Maboh,Njama,2020-12-08,0.2,1461.11,-68729.07974000000056111,grid,False,11.9393,8.07978
172,1411580,#867824514,0013A20041B8D51E,Kinnie Bundu,Njama,2020-12-08,0.2,1461.11,4118.42774000000005101,grid,False,11.93962,8.08031
173,1411581,#593553383,0013A20041B8D45B,John Tibbie,Njama,2020-12-08,0.2,1461.11,-31205.6953499999994899,grid,False,11.93888,8.08141
174,1411582,#153630036,0013A20041B8D409,Fatmata Kamara,Njama,2020-12-08,0.2,1461.11,16736.037942000000489696,grid,True,11.94103,8.0824
175,1411583,#066903944,0013A20041B8D3D8,Henry Lassie 1,Njama,2020-12-08,0.2,1461.11,38999.744942819071643786,grid,False,11.93713,8.08058
176,1411584,#408626753,0013A20041B8D347,Mohamed B. Saccoh,Njama,2020-12-08,0.2,1461.11,25052.157710000000642726,grid,False,11.939007,8.08022
177,1411585,#125770510,0013A20041B89B11,Alex Josiah 1,Njama,2020-12-08,0.2,1461.11,31245.323452000000183636,grid,False,11.94144,8.0821
178,1411586,#750050891,0013A20041B89AC9,Mohamed B. Saccoh,Njama,2020-12-08,0.2,1461.11,-32865.7026500000005101,grid,False,11.9393,8.07978
179,1411587,#240971476,0013A20041B89AC3,Junior Thomas,Njama,2020-12-08,0.2,1461.11,29406.155910000009288921,grid,False,11.93808,8.08018
180,1411588,#623040545,0013A20041B89AA0,Messi Alpha 1,Njama,2020-12-08,0.2,1461.11,15357.99045000000056111,grid,False,11.93909,8.07981
181,1411589,#575481462,0013A20041B89A92,Anthony  Brewah,Njama,2020-12-08,0.2,1461.11,4382.630029000000209141,grid,False,11.9397,8.07938
182,1411590,#281239722,0013A20041B899EA,Alhaji M.T Saccoh,Njama,2020-12-08,0.2,1461.11,20541.63041000051168131,grid,False,11.93851,8.08083
183,1411591,#415324449,0013A20041B899E0,Mattia K Lamin,Njama,2020-12-08,0.2,1461.11,-8418.242,grid,False,-11.94037,8.08237
184,1411592,#846827839,0013A20041B899D2,Ernest Kain   (Sabay),Njama,2020-12-08,0.2,1461.11,-5302.82103,grid,False,11.93956,8.08076
185,1411593,#456234948,0013A20041B88CCA,George Quee,Njama,2020-12-08,0.2,1461.11,3162.06813999999994899,grid,False,11.93919,8.08037
186,1411594,#190561997,0013A20041B88C7D,Hamid Kargbo,Njama,2020-12-08,0.2,1461.11,8034.152066572350976233,grid,False,11.9379,8.0811
187,1411595,#816179539,0013A20041B884A2,Kinnie Piawai,Njama,2020-12-08,0.2,1461.11,-41634.74178266904921979,grid,False,11.93951,8.08181
188,1411596,#578521558,0013A20041B12004,Agnes Lappia,Njama,2020-12-08,0.2,1461.11,7318.64711799999984697,grid,False,11.94016,8.07829
189,1411597,#295848409,0013A20041B11FD8,Mary A. Smith,Njama,2020-12-08,0.2,1461.11,-36803.3532349999994899,grid,False,12.28766,8.077
190,1411598,#727775797,0013A20041B11E68,Wuyatta Charles  ,Njama,2020-12-08,0.2,1461.11,-10834.88930999999979596,grid,False,11.941,8.08228
191,1411599,#180014336,0013A20041B11AF3,Fatmata E. Mansaray,Njama,2020-12-08,0.2,1461.11,26988.854304000000591716,grid,False,11.94108,8.08232
192,1411600,#337341946,0013A20041B10C1C,Gbessay  Allieu,Njama,2020-12-08,0.2,1461.11,-27857.178789999998867578,grid,False,11.94018,8.08069
193,1411601,#246657431,0013A20041B0F4D5,Alice Kpeka,Njama,2020-12-08,0.2,1461.11,-24295.352799999999331769,grid,False,11.94044,8.08073
194,1411602,#020355627,0013A20041B0F4B6,Alhaji Sidique,Njama,2020-12-08,0.2,1461.11,14028.6156987356314309,grid,False,11.9391,8.07791
195,1411603,#409558588,0013A20041AB3860,Gabriel Smart,Njama,2020-12-08,0.2,1461.11,-10658.7249179999989798,grid,True,11.9381,8.07942
196,1411604,#417748203,0013A20041AB3750,Baby Gormoi,Njama,2020-12-08,0.2,1961.11,-26128.24328999999943889,grid,False,11.93914,8.07753
197,1411605,#330836732,0013A20041AB3720,Bobson Kailie ,Njama,2020-12-08,0.2,1461.11,9712.676360000000107121,grid,False,11.93783,8.08054
198,1411606,#958584944,0013A200419587A5,Francis Laggah,Njama,2020-12-08,0.2,1461.11,10756.39418,grid,False,11.94039,8.07875
199,1411607,#683696938,0013A200418F1F98,Musu Dambo,Njama,2020-12-08,0.2,1461.11,-67517.9323749999994899,grid,True,11.93998,8.080075
200,1411608,#243287192,0013A20041814D0E,Emmanuel  F. George  (SPEAKER)  1,Njama,2020-12-08,0.2,1461.11,6077.90458309998423791,grid,False,11.93899,8.0812
201,1411609,#926840090,0013A2004176AA79,Agnes Mattia  (Mummy),Njama,2020-12-08,0.2,1461.11,-1030.6817888391996532,grid,False,11.94116,8.08214
202,1411610,#141571779,0013A2004176AA37,Lawundeh Benya,Njama,2020-12-08,0.2,1461.11,-5041.837529999999362375,grid,False,11.93956,8.08123
203,1411611,#826638321,0013A20041766A11,Alex Josiah 2 ABC centre,Njama,2020-12-08,0.2,1461.11,21166.242809000001356866,grid,False,11.94334,8.08247
204,1411612,#423941810,0013A200417630A4,John Harding,Njama,2020-12-08,0.2,1461.11,-66355.22862999999994899,grid,False,11.93935,8.08155
205,1411613,#798039157,0013A20041740EAE,Agnes Benya,Njama,2020-12-08,0.2,1461.11,51205.910480000000107121,grid,False,11.93991,8.0816
206,1411614,#218605179,0013A20041740E7F,Patrick P.  George,Njama,2020-12-08,0.2,1461.11,-29278.852407,grid,False,11.93739,8.08044
207,1411615,#541011597,0013A2004167211F,Betty Bongay,Njama,2020-12-08,0.2,1461.11,19539.98153,grid,False,-11.9368,8.08103
208,1411616,#045292538,0013A20041672114,Messi Alpha 2,Njama,2020-12-08,0.2,1461.11,15459.8944400000005101,grid,False,11.93906,8.07985
209,1411617,#973543503,0013A2004167210A,Alfred G. Fanawo  2,Njama,2020-12-08,0.2,1461.11,-15667.86128306874034211,grid,False,11.9405,8.08179
210,1411618,#626260091,0013A200416720F5,Catherine M. Koroma,Njama,2020-12-08,0.2,1461.11,37549.21321999999994899,grid,False,11.93976,8.08168
211,1411619,#551731202,0013A200416720ED,U.M.C Church,Njama,2020-12-08,0.2,1461.11,28508.60809299999989798,grid,False,11.94093,8.0811
212,1411620,#133717862,0013A20041671B0F,John Garmui 1,Njama,2020-12-08,0.2,1461.11,19518.33819600000005101,grid,False,11.93853,8.07998
213,1411621,#230058499,0013A2004164D61A,Amadu Bangui  (kadimudi),Njama,2020-12-08,0.2,1461.11,16825.21315000002637217,grid,False,11.93714,8.08096
214,1411622,#302465431,0013A2004163D911,Fatmata Fuad,Njama,2020-12-08,0.2,1461.11,18983.53289999999994899,grid,False,11.93818,8.08078
215,1411623,#750539437,0013A2004163D90B,Alfred G. Fanawo 1,Njama,2020-12-08,0.2,1461.11,-5756.69191709524038583,grid,False,11.94043,8.08195
216,1411624,#542775473,0013A2004163D800,Justine Vanjah  (Munda),Njama,2020-12-08,0.2,1461.11,6614.26738,grid,False,12.08909,8.04084
217,1411625,#636049018,0013A2004163D7FD,Joseph  George  (Tamba Josie),Njama,2020-12-08,0.2,1461.11,39397.92904,grid,False,11.9395,8.08155
218,1411626,#677824774,0013A20041631772,Joseph  N.T Lawundeh  (Njaiba),Njama,2020-12-08,0.2,1461.11,22936.3625395000015303,grid,False,11.93802,8.08021
219,1411627,#386664103,0013A20041631735,Jattu Lappia,Njama,2020-12-08,0.2,1461.11,-13727.738053499999280759,grid,False,11.93722,8.0806
220,1411628,#407708916,0013A20041631731,John P.  Ndanemah,Njama,2020-12-08,0.2,1461.11,38022.756500000000372373,grid,False,11.94008,8.07868
221,1411629,#265821660,0013A2004163169C,Theresa L. Alieu  (CHO),Njama,2020-12-08,0.2,1461.11,28553.763769000001356866,grid,False,11.94174,8.08233
222,1411630,#561580090,0013A200415B8C34,Maseray Kailie,Njama,2020-12-08,0.2,1461.11,-16786.83678,grid,False,11.93812,8.08015
223,1411664,#124626341,0013A20041B11FA4,Joseph  Alie,Mokolleh,2020-12-08,0.2,1461.11,-20160.341848714283356895,grid,False,12.1655,7.71832
224,1411665,#553178270,0013A20041B11F96,Abu  Bakarr Luseni,Mokolleh,2020-12-08,0.2,1461.11,13518.05497800000005101,grid,False,12.16408,7.71594
225,1411666,#446939155,0013A20041B11F81,Kona Korgbai   (Elizabeth),Mokolleh,2020-12-08,0.2,1461.11,7271.489385,grid,False,12.1652,7.71756
226,1411667,#502840713,0013A20041B11EF9,Julius F.S Gotto,Mokolleh,2020-12-08,0.2,1461.11,-32961.598851,grid,False,12.16452,7.7169
227,1411668,#123585299,0013A20041B11ED8,Mamie Sei,Mokolleh,2020-12-08,0.2,1461.11,1026.859387000000224444,grid,False,12.0,7.0
228,1411669,#483879695,0013A20041B11E63,Michael Vandy  2,Mokolleh,2020-12-08,0.2,1461.11,322.10723000010202,grid,False,12.16401,7.7157
229,1411670,#517966466,0013A20041B11E61,Jamiru Nyama,Mokolleh,2020-12-08,0.2,1461.11,-465.79038999999938788,grid,False,12.16521,7.71767
230,1411671,#426747068,0013A20041B11E35,Magnus E.T. Sandy 1,Mokolleh,2020-12-08,0.2,1461.11,-8895.83850910000005101,grid,False,12.16466,7.71807
231,1411672,#130558470,0013A20041B11E1E,Tommy Nabie  (Borboh),Mokolleh,2020-12-08,0.2,1461.11,2010.12246314286101233,grid,False,12.76374,7.71644
232,1411673,#263398794,0013A20041B11E0A,Bockarie Luseni  (BL),Mokolleh,2020-12-08,0.2,1461.11,-20235.2042098571371003,grid,False,12.16418,7.71601
233,1411674,#433900038,0013A20041B11BD9,Moses Kain,Mokolleh,2020-12-08,0.2,1461.11,3251.6875429999989798,grid,False,12.16457,7.71587
234,1411675,#733947398,0013A20041B11BA3,John Ndoinje,Mokolleh,2020-12-08,0.2,1461.11,1361.115139714287009211,grid,False,12.16485,7.71786
235,1411676,#516945689,0013A20041B11B97,Mohamed Sesay,Mokolleh,2020-12-08,0.2,1461.11,4913.2373360000030606,grid,False,12.16469,7.7174
236,1411677,#888968835,0013A20041B11B5B,Kona Harding,Mokolleh,2020-12-08,0.2,1461.11,-11188.0956671428577987,grid,False,12.46434,7.17759
237,1411678,#757581366,0013A20041B11B58,Ibrahim Kamara,Mokolleh,2020-12-08,0.2,1461.11,2632.98660000000107121,grid,False,12.16377,7.71557
238,1411679,#775235908,0013A20041B11B44,Community Centre,Mokolleh,2020-12-08,0.2,1461.11,-13910.945354,grid,False,12.16502,7.7174
239,1411680,#796085430,0013A20041B11B35,Alfred Moseray,Mokolleh,2020-12-08,0.2,1461.11,-516.859535714285846183,grid,False,12.16473,7.71699
240,1411681,#957028838,0013A20041B11B21,Clerk Quarter,Mokolleh,2020-12-08,0.2,1461.11,613.86064700000010202,grid,False,12.16462,7.71698
241,1411682,#602420135,0013A20041B11B20,C.H.C Quarter 1,Mokolleh,2020-12-08,0.2,1461.11,10642.462386428573697059,grid,False,12.16406,7.71438
242,1411683,#982507415,0013A20041B11AF8,Jeneba Luseni,Mokolleh,2020-12-08,0.2,1461.11,11450.84125200000096919,grid,False,12.16368,7.71626
243,1411684,#550226987,0013A20041B11A7C,Augustine Njawa,Mokolleh,2020-12-08,0.2,1461.11,334.973045000000688635,grid,False,12.16349,7.71625
244,1411685,#664593499,0013A20041B11A3F,Joe Amodu Massaquoi,Mokolleh,2020-12-08,0.2,1461.11,-290.2153699999989798,grid,False,12.16379,7.71573
245,1411686,#375840794,0013A20041B11A32,Alhaji Alpha Jimmy  2,Mokolleh,2020-12-08,0.2,1461.11,5739.85580000000005101,grid,False,12.16457,7.71668
246,1411687,#507439400,0013A20041B11A1F,Paramount Chief Jombla,Mokolleh,2020-12-08,2.0,10642.91,10443.5005484286968403,grid,False,12.16435,7.71648
247,1411688,#762462118,0013A20041B119D8,Hawa Santigie,Mokolleh,2020-12-08,0.2,1961.11,-2977.96592134286794969,grid,False,12.16494,7.71795
248,1411689,#796565980,0013A20041B119CF,Rachel Kamanda,Mokolleh,2020-12-08,0.2,1461.11,14706.3163500000005101,grid,False,12.16508,7.71783
249,1411690,#443950330,0013A20041B119CA,Abdulai Jimmy,Mokolleh,2020-12-08,0.2,1461.11,2864.0521510000005101,grid,False,12.1634,7.71642
250,1411691,#588512588,0013A20041B10C71,Central Mosque,Mokolleh,2020-12-08,0.2,1461.11,7946.09490500000045909,grid,False,12.16477,7.71719
251,1411692,#141888771,0013A20041B10C6D,Senesie Kamara,Mokolleh,2020-12-08,0.2,1461.11,908.2204300000010202,grid,False,12.16468,7.71745
252,1411693,#291795096,0013A20041B10C53,Alhaji Turay,Mokolleh,2020-12-08,0.2,1461.11,11239.52174,grid,False,12.0,7.0
253,1411694,#924545173,0013A20041B10AC5,Jessie Bear,Mokolleh,2020-12-08,0.2,1461.11,-9535.0573983285718658,grid,False,12.16443,7.71821
254,1411695,#541660753,0013A20041B0F70C,Mamie Njawa,Mokolleh,2020-12-08,0.2,1461.11,12267.30160342857232489,grid,False,12.0,7.0
255,1411696,#766740590,0013A20041B0F55F,Mustapha Sellu,Mokolleh,2020-12-08,0.2,1461.11,-24493.99081999999928586,grid,False,12.1638,7.71591
256,1411697,#932736879,0013A20041B0F533,Alhaji Sandy ,Mokolleh,2020-12-08,0.2,1461.11,-9151.40946000000005101,grid,False,12.16432,7.71656
257,1411698,#437640841,0013A20041B0F4DA,Joe Nyama,Mokolleh,2020-12-08,0.2,1461.11,-2990.626419999998755356,grid,False,12.16529,7.71772
258,1411699,#699634298,0013A20041814D2E,C.H.C Quarter 2,Mokolleh,2020-12-08,0.2,1461.11,1318.658765285713557,grid,False,12.16403,7.71443
259,1411700,#870258447,0013A20041B8E968,Gbessay Turay,Masimera,2020-12-08,0.2,1961.11,949.610485400003029994,grid,False,0.0,0.0
260,1411701,#312181054,0013A20041ACFCEC,Pa Lonkoh  Koroma,Masimera,2020-12-08,0.2,1461.11,-20.600107142858711779,grid,False,12.44991,8.64479
261,1411702,#647504801,0013A20041ACFCC0,Osman S Bangura,Masimera,2020-12-08,0.2,1461.11,2648.65862899999989798,grid,False,12.45107,8.64562
262,1411703,#785440904,0013A20041ACFC9B,Mohamed  Mansaray,Masimera,2020-12-08,2.5,13193.41,-12455.71695999999943889,grid,False,0.0,0.0
263,1411704,#860039876,0013A20041ACFC4E,Abdul Salam Bangura (Diplo),Masimera,2020-12-08,0.2,1461.11,8525.86247142857283499,grid,False,0.0,0.0
264,1411705,#394312073,0013A20041ACF71B,Chief Kabin Thunkla Kargbo,Masimera,2020-12-08,0.2,1461.11,822.12465599846975101,grid,False,0.0,0.0
265,1411706,#833201262,0013A20041ACF650,Chief Kabin Thunkla Kargbo,Masimera,2020-12-08,0.2,1461.11,-6260.7015042857125368,grid,False,0.0,0.0
266,1411707,#712080548,0013A20041ACF5F7,Abdul Olekay Kamara,Masimera,2020-12-08,0.2,1461.11,928.76075042908135368,grid,True,12.4519,8.64309
267,1411708,#286180682,0013A20041ACF5F5,Pa Osman  Bangura,Masimera,2020-12-08,0.2,1461.11,-4648.09544714285927799,grid,False,0.0,0.0
268,1411709,#552503870,0013A20041ACF5EE,Pa Fenti Kamara,Masimera,2020-12-08,0.2,1461.11,-17603.765098570916850768,grid,False,12.44993,8.64637
269,1411710,#345377791,0013A20041ACF5E3,Pa Momoh Bangura,Masimera,2020-12-08,0.2,1461.11,-1446.80466900000005101,grid,False,12.63789,8.80516
270,1411711,#233798599,0013A20041ACF5D5,Samuel S. Jalloh,Masimera,2020-12-08,0.2,1461.11,-65284.24616857142665491,grid,False,0.0,0.0
271,1411712,#391654400,0013A20041ACF5CF,Alieu Conteh,Masimera,2020-12-08,2.5,13193.41,3293.50341857142869531,grid,False,12.45035,8.64285
272,1411713,#213079269,0013A20041ACF5CB,Adamsay Kamara,Masimera,2020-12-08,0.2,1461.11,-26911.65244500000015303,grid,False,12.45033,8.64578
273,1411714,#105120125,0013A20041ACF5C7,Aminata Kamara,Masimera,2020-12-08,0.2,1461.11,-522.21100042806263297,grid,False,12.44925,8.64298
274,1411715,#741961990,0013A20041ACF5AD,Mammie Abibatu Turay,Masimera,2020-12-08,0.2,1461.11,-68828.543495714286443,grid,False,12.4505,8.64359
275,1411716,#701932949,0013A20041ACF59C,Nakama Sesay,Masimera,2020-12-08,0.2,1461.11,2298.2496820000005101,grid,False,12.45002,8.64525
276,1411717,#033846023,0013A20041ACF405,Santigie Ceazar Koroma--01,Masimera,2020-12-08,0.2,1461.11,-32854.855781857140099688,grid,True,0.0,0.0
277,1411718,#715492737,0013A20041ACF3CE,Salieu  Bangura,Masimera,2020-12-08,0.2,1461.11,2976.34426142857278398,grid,False,12.45019,8.64535
278,1411719,#857666040,0013A20041ACF3C5,Ishmeal Kargbo,Masimera,2020-12-08,0.2,1461.11,2520.28110899999984697,grid,False,0.0,0.0
279,1411720,#066575619,0013A20041ACF3B1,Osman Sesay,Masimera,2020-12-08,0.2,1461.11,-615.2480800005101,grid,False,0.0,0.0
280,1411721,#694947778,0013A20041ACF38A,Umaru Kuyateh,Masimera,2020-12-08,0.2,1461.11,3063.13947800000005101,grid,False,12.44981,8.64569
281,1411722,#256322940,0013A20041ACF34E,Fatmata Conteh (Tata),Masimera,2020-12-08,0.2,1461.11,7039.08261599999989798,grid,False,0.0,0.0
282,1411723,#658846278,0013A20041ACF2DD,Abubakarr Sesay,Masimera,2020-12-08,0.2,1461.11,6982.32023570406914,grid,False,12.45073,8.64502
283,1411724,#558603708,0013A20041ACF118,Mohamed M Bangura,Masimera,2020-12-08,0.2,1461.11,-398.195615001530728484,grid,False,0.0,0.0
284,1411725,#161414225,0013A20041A77FDF,Abdul Base Kamara,Masimera,2020-12-08,0.2,1461.11,-3646.452545714286443,grid,False,12.44925,8.64495
285,1411726,#067518560,0013A20041A77FD9,Momoh Bangura,Masimera,2020-12-08,0.2,1461.11,-16155.41915999999841869,grid,False,12.45082,8.64567
286,1411727,#430652232,0013A20041A77FCE,Hassan H Kalokoh,Masimera,2020-12-08,0.2,1461.11,14766.24119000000020404,grid,False,12.4493,8.64288
287,1411728,#861244760,0013A20041A77F91,Abubakarr Kamara (ABK),Masimera,2020-12-08,0.2,1461.11,-2084.51236299999994899,grid,False,12.44957,8.64288
288,1411761,#023877871,0013A20041B12253,Emmanuel  Ngaima,Mano Dasse,2020-12-08,0.2,1461.11,-850.06041,grid,False,12.09543,8.03648
289,1411762,#142214116,0013A20041B12242,Joesph P Saboleh,Mano Dasse,2020-12-08,0.2,1461.11,14658.0174900010207101,grid,False,12.0939,8.03846
290,1411763,#551580008,0013A20041B1223C,Gassimu Teffesa,Mano Dasse,2020-12-08,2.1,11153.01,16634.916999994899581514,grid,False,12.09261,8.03889
291,1411764,#921809514,0013A20041B12239,Marian John,Mano Dasse,2020-12-08,0.2,1461.11,60364.63561000000005101,grid,False,12.0966,8.0369
292,1411765,#121457560,0013A20041B1221D,Esther Feika,Mano Dasse,2020-12-08,0.2,1461.11,2368.93066000102081212,grid,False,12.09661,8.03691
293,1411766,#731881925,0013A20041B12216,Margaret Abu,Mano Dasse,2020-12-08,0.2,1461.11,4005.84901400000178535,grid,False,12.09251,8.03427
294,1411767,#538413772,0013A20041B121B3,Francis Ngaujah,Mano Dasse,2020-12-08,0.2,1461.11,-30000.595706999999214446,grid,False,12.09152,8.03397
295,1411768,#295138463,0013A20041B1219F,Solomon D Feika,Mano Dasse,2020-12-08,0.2,1461.11,30946.61238100000005101,grid,False,12.09108,8.03984
296,1411769,#286599745,0013A20041B1218C,Haja Isata Sesay,Mano Dasse,2020-12-08,0.2,1461.11,4205.169540000510691716,grid,False,12.09057,8.03856
297,1411770,#330795074,0013A20041B12189,Massah Shaka,Mano Dasse,2020-12-08,1.2,6562.11,-12002.519060005100928586,grid,False,12.09124,8.03535
298,1411771,#654654360,0013A20041B1200D,Alhaji Hassan Jah 2,Mano Dasse,2020-12-08,0.2,1461.11,-35493.88169,grid,False,12.08929,8.03928
299,1411772,#070558693,0013A20041B11FFA,Robert Mbayo Brassay,Mano Dasse,2020-12-08,0.2,1461.11,20787.34116999999989798,grid,False,12.09306,8.03673
300,1411773,#594886300,0013A20041B11FF5,Matthew J. Banister,Mano Dasse,2020-12-08,0.2,1461.11,29265.09317,grid,False,12.09531,8.03722
301,1411774,#412182588,0013A20041B11FE7,Mark sellu Jangatti,Mano Dasse,2020-12-08,0.2,1461.11,6630.733110000510309141,grid,False,12.0904,8.03898
302,1411775,#577064252,0013A20041B11FCB,PCMP-Haja F.B Koroma Meama-Kajue 3,Mano Dasse,2020-12-08,0.5,2991.41,3873.660260000003580902,grid,False,12.0917,8.0378
303,1411776,#435424561,0013A20041B11FC5,Gbassey Kaindaneh,Mano Dasse,2020-12-08,0.7,4011.61,5003.303330000510645807,grid,False,12.09365,8.03658
304,1411206,#227514436,0013A20041A18C42,James  B Lahai (community centre),Senehun,2020-12-08,0.31971,2071.75071,-40561.84297999999994899,grid,False,11.94724,8.1684
305,1411207,#735033155,0013A200419AD433,Florence Caulker,Senehun,2020-12-08,0.3,1971.21,-731.69663999999954091,grid,False,11.94879,8.17001
306,1411208,#072678770,0013A2004195829E,Mrs. Mary S. Ngebeh 2,Senehun,2020-12-08,0.3,1971.21,12553.4317242857150873,grid,False,11.94124,8.16896
307,1411209,#589482500,0013A20041814C5D,Joseph Kpagbavie,Senehun,2020-12-08,0.3,1971.21,-64758.58030285714072201,grid,False,11.9478,8.16831
308,1411210,#154712960,0013A200417870A7,James  B Lahai Jnr,Senehun,2020-12-08,0.3,1971.21,10455.4036566598993119,grid,False,11.94689,8.16838
309,1411211,#744599067,0013A200417870A3,Racheal Abie Bangali 1,Senehun,2020-12-08,0.3,1971.21,16003.865721152223845467428572886,grid,False,11.94427,8.16707
310,1411212,#999463036,0013A2004178707A,Micheal A F Abdulai (No.3),Senehun,2020-12-08,0.3,1971.21,7974.76300000000193838,grid,False,11.9392,8.16873
311,1411213,#445296092,0013A20041787061,Hassan Thol ley  2,Senehun,2020-12-08,0.3,1971.21,16508.37209200000346868,grid,True,11.94616,8.16893
312,1411214,#265755898,0013A20041787054,Mamie Mansaray,Senehun,2020-12-08,0.3,1971.21,1589.045831429084444886,grid,False,11.94896,8.16768
313,1411215,#794632967,0013A2004176AA63,Mamie Ngoba,Senehun,2020-12-08,0.3,1971.21,2944.1986785719387443,grid,False,11.943,8.16726
314,1411216,#668184261,0013A2004176AA60,Rev. Joseph Lahai Moseray,Senehun,2020-12-08,0.3,1971.21,10931.65362000051122222,grid,False,-11.94421,8.16714
315,1411217,#215316517,0013A2004176AA4E,Salmana Massaquoi,Senehun,2020-12-08,0.3,1971.21,131327.7705557142889935,grid,False,-11.94867,8.16797
316,1411218,#632405799,0013A2004176AA2E,Dauda Squire,Senehun,2020-12-08,0.3,1971.21,6895.3960542821433671,grid,False,11.94753,8.168222
317,1411219,#172988204,0013A2004176AA07,Sudie Ndaya,Senehun,2020-12-08,0.3,1971.21,-1512.7752100005095899,grid,False,11.94913,8.1684
318,1411220,#639091787,0013A20041766A4C,Momodu Swaray,Senehun,2020-12-08,0.3,1971.21,22271.6457700005106101,grid,False,11.94394,8.16728
319,1411221,#968818363,0013A20041766A2C,Cecilia Bassie ,Senehun,2020-12-08,0.3,1971.21,5711.30702328571411811,grid,False,11.94707,8.16932
320,1411222,#748142283,0013A20041766A25,Alex G Kandeh,Senehun,2020-12-08,0.3,1971.21,970.2591628571437316,grid,False,11.94962,8.16718
321,1411223,#179652107,0013A20041766A19,Margaret Weaber,Senehun,2020-12-08,0.3,1971.21,10719.1430900015308101,grid,False,11.94442,8.16831
322,1411224,#717864276,0013A200417669DE,Massah Ngebeh 1 (MARIAN),Senehun,2020-12-08,0.3,1971.21,28583.422450000002280147,grid,False,11.94214,8.16796
323,1411225,#659683600,0013A200417669D7,Tommy Kovey (B),Senehun,2020-12-08,0.3,1971.21,1525.523451428573523625,grid,False,11.94698,8.16835
324,1411226,#536201053,0013A200417669D4,Harry Williams,Senehun,2020-12-08,0.3,1971.21,35571.142837142859981928,grid,False,11.94667,8.16844
325,1411227,#901946095,0013A200417630A1,Kennie Moses,Senehun,2020-12-08,0.3,1971.21,1234.1211065714286443,grid,False,11.94421,8.16815
326,1411228,#910659221,0013A20041763074,Bishop Carew memorial UMC senehun,Senehun,2020-12-08,0.3,1971.21,99385.247559,grid,False,11.94686,8.16856
327,1411229,#220332342,0013A20041763041,Bob Moses,Senehun,2020-12-08,0.9,5031.81,21439.70089000255243838,grid,False,11.94889,8.16804
328,1411230,#624045105,0013A20041740ECF,An-marie Senesie,Senehun,2020-12-08,0.3,1971.21,4773.301684285715066896,grid,False,11.94921,8.16857
329,1411231,#233389240,0013A20041740EC9 ,Alex G. Kandeh 2,Senehun,2020-12-08,0.3,1971.21,-41016.83407,grid,False,11.94348,8.16739
330,1411232,#990241415,0013A20041740EC1,Margaret Yovonie,Senehun,2020-12-08,0.3,1971.21,3761.17052958570631358,grid,False,11.94627,8.16901
331,1411233,#070050620,0013A20041740EBF,John B. Smith,Senehun,2020-12-08,0.3,1971.21,127.79555999994909202,grid,False,11.94909,8.16777
332,1411234,#439288331,0013A20041740EBB,Mattu Demoh,Senehun,2020-12-08,0.3,1971.21,2403.37576000000045909,grid,False,11.94754,8.1686
333,1411235,#767797221,0013A20041740EA7,Julius Tham,Senehun,2020-12-08,1.4,7582.31,250007.294435709186952896,grid,False,11.94266,81.0
334,1411236,#225328609,0013A20041740DAA,Bandajuma Community Store,Senehun,2020-12-08,0.3,1971.21,-53092.884501,grid,False,11.94317,8.16739
335,1411237,#515146217,0013A20041740DA8,Swaloh Koroma,Senehun,2020-12-08,0.3,1971.21,-5050.5715600000000999796,grid,False,11.94813,8.16821
336,1411303,#642903621,0013A200415158A7,B. S kondolomo,Senehun,2020-12-08,0.3,1971.21,16498.6946918545917013,grid,False,11.94709,8.16889
337,1411304,#753003323,0013A200415158A1,Augustine Ngegba,Senehun,2020-12-08,0.3,1971.21,7752.08441085714133413,grid,False,11.94422,8.16759
338,1411305,#787735436,0013A20041515890,Cyril Masuba Fortune,Senehun,2020-12-08,0.8,4521.71,39701.9044185714281342,grid,False,11.94719,8.16959
339,1411306,#648307873,0013A2004151588D,Fatu Kongo,Senehun,2020-12-08,0.3,1971.21,19240.5079460000005101,grid,False,11.94845,8.16984
340,1411307,#060791256,0013A20041515888,Mamie Senesie,Senehun,2020-12-08,0.3,1971.21,1025.649663690460908366,grid,False,11.94158,8.16862
341,1411308,#213187643,0013A200414FAF96,Margaret G. Sylvalie,Senehun,2020-12-08,0.3,1971.21,15035.12913600000056111,grid,False,11.94879,8.16992
342,1411309,#100914695,0013A200414FAF8E,Tommy Kovey,Senehun,2020-12-08,0.3,1971.21,-613.75958499897995303,grid,False,11.94694,8.16832
343,1411310,#964287541,0013A200414FAF80,Patrick M J Dimoh,Senehun,2020-12-08,0.3,1971.21,14402.86372100000107121,grid,False,11.94942,8.16902
344,1411311,#524529832,0013A200414FAF70,Edward Carew 2 (AJOTIE),Senehun,2020-12-08,0.3,1971.21,3887.1702690000005101,grid,False,11.95003,8.16729
345,1411312,#559598608,0013A20041080BFC,Philicia George,Senehun,2020-12-08,0.3,1971.21,4858.99171700000005101,grid,False,11.94849,8.16987
346,1411313,#758851794,0013A20041080BBA,Kadie Gomoh,Senehun,2020-12-08,1.3,7072.21,9462.80080400000453989,grid,False,1.94997,8.16693
347,1411314,#682896027,0013A20041080BB4,Frank Lahai,Senehun,2020-12-08,0.3,1971.21,2129.761400000000122424,grid,False,11.94932,8.16747
348,1411315,#065958914,0013A20041080B9C,Miatta Amara,Senehun,2020-12-08,0.3,1971.21,-1731.05993199999954091,grid,False,11.94934,8.16826
349,1411316,#125975211,0013A20041080B8E,Ibrahim N Moriba,Senehun,2020-12-08,0.3,1971.21,-4952.8244509999974495,grid,False,-11.94655,8.16886
350,1411317,#627107445,0013A20041BEC7D0,Osman Sesay (Kantia rd),Sendugu,2020-12-08,0.3,1971.21,5474.1072400000010202,grid,False,12.62969,9.07109
351,1411318,#979269702,0013A20041BEC7A7,Yeabu Daramy 2,Sendugu,2020-12-08,0.3,1971.21,27892.30543500000096919,grid,False,12.63005,9.06999
352,1411319,#733864493,0013A20041BEC7A2,Muctaru Jalloh (Daddy),Sendugu,2020-12-08,1.5,8092.41,-70479.102791999996959804,grid,False,12.62981,9.06962
353,1411320,#317827693,0013A20041BEC79A,Alie  B Kamara,Sendugu,2020-12-08,0.3,1971.21,24177.7510300000015303,grid,False,12.63055,9.06937
354,1411321,#083338020,0013A20041BEC774,Adamsay Tommy,Sendugu,2020-12-08,0.3,1971.21,3812.76811000000209141,grid,False,12.63171,9.06869
355,1411322,#348801275,0013A20041BEC76A,Kadiatu  Kamara ( Councilor),Sendugu,2020-12-08,0.3,1971.21,686.0316690000020404,grid,False,12.62957,9.07098
356,1411323,#423017368,0013A20041BEC766,Ibrahim Turay  (Banja),Sendugu,2020-12-08,1.0,5541.91,-5120.989459999999510304,grid,False,12.62981,9.069812
357,1411324,#220413965,0013A20041BEC6CE,Alimamy Bundu Kamara,Sendugu,2020-12-08,0.3,1971.21,372.67622500000168333,grid,False,12.62942,9.07137
358,1411325,#997237637,0013A20041BEC01B,Yeabu Daramy 3,Sendugu,2020-12-08,0.3,1971.21,13382.52759000000168333,grid,False,12.63012,9.07005
359,1411326,#695373745,0013A20041BEC012,Andrew Tarawalie,Sendugu,2020-12-08,0.3,1971.21,30002.8857500000005101,grid,False,12.62993,9.06983
360,1411327,#586877611,0013A20041BEBF68,Yeabu Musa Turay 2,Sendugu,2020-12-08,0.3,1971.21,12039.06721800000107121,grid,False,12.62971,9.06968
361,1411328,#808387583,0013A20041BEBA7D,Chernor Jalloh 2,Sendugu,2020-12-08,0.3,1971.21,922.9960000000010202,grid,False,12.62899,9.06848
362,1411329,#195840143,0013A20041BEBA6B,Umaru Nabby Kamara (Orpotho),Sendugu,2020-12-08,0.3,1971.21,1040.9981610000010202,grid,False,12.6309,9.07004
363,1411330,#274264251,0013A20041BEBA4E,Isatu Kamara,Sendugu,2020-12-08,0.3,1971.21,13515.72635000000147929,grid,False,12.63083,9.06983
364,1411331,#425111794,0013A20041BEB9CE,Usman Manah Sesay,Sendugu,2020-12-08,0.3,1971.21,623.8264270000010202,grid,False,12.63083,9.06961
365,1411332,#851336088,0013A20041BEB9A5,Salieu Turay,Sendugu,2020-12-08,0.3,1971.21,8188.9509460000010202,grid,False,12.63087,9.07067
366,1411333,#412257859,0013A20041BEB960,Alhaji U.L Kamara,Sendugu,2020-12-08,0.3,2471.21,-34163.189305999996449704,grid,False,12.63162,9.07098
367,1411334,#444727270,0013A20041BEB90C,Abass Kamara,Sendugu,2020-12-08,0.3,1971.21,9208.78802300000775352,grid,False,12.63103,9.07002
368,1411335,#765110854,0013A20041BEB862,Salieu Conteh- 1,Sendugu,2020-12-08,0.3,1971.21,9832.1631810000010202,grid,False,12.63098,9.07078
369,1411368,#930375176,0013A20041B8862E,Mustapha Kargbo,Sendugu,2020-12-08,0.3,1971.21,6318.2304100000015303,grid,False,12.62953,9.06937
370,1411369,#044795914,0013A20041B8845F,Pa Alimamy Conteh,Sendugu,2020-12-08,0.3,1971.21,10640.11172000000107121,grid,False,12.62938,9.07147
371,1411370,#154422888,0013A20041B88449,Aminata Tommy (Mummy),Sendugu,2020-12-08,0.3,1971.21,2025.6967500000010202,grid,False,12.63167,9.06872
372,1411371,#406672961,0013A20041C54D72,Osman Turay,Petifu Junction,2020-12-08,0.3,1971.21,-17574.444195857131137231,grid,False,13.1154,8.69325
373,1411372,#383519167,0013A20041C54407,Shebura  Kamara Community Centre,Petifu Junction,2020-12-08,0.3,1971.21,18669.952,grid,False,0.0,0.0
374,1411373,#367810916,0013A20041BED0E2,Adikalie  Sesay,Petifu Junction,2020-12-08,0.3,1971.21,8536.458382,grid,False,-13.10946,8.69433
375,1411374,#327040060,0013A20041BECF1F,Osman  Conteh,Petifu Junction,2020-12-08,0.3,1971.21,12823.77082,grid,False,0.0,0.0
376,1411375,#296282998,0013A20041BECDB9,Moreba  Turay,Petifu Junction,2020-12-08,0.3,1971.21,3102.876259,grid,False,-13.11365,8.6922
377,1411376,#120176401,0013A20041BECA71,Pa Brima Kamara,Petifu Junction,2020-12-08,0.3,1971.21,5927.305060000025505,grid,False,13.10849,8.69604
378,1411377,#612461829,0013A20041BEC5BA,Sheku Turay,Petifu Junction,2020-12-08,0.3,1971.21,-50960.133267803760501744,grid,False,13.11446,8.69256
379,1411378,#062597091,0013A20041BEC5A2,Mr. Santigie Turay,Petifu Junction,2020-12-08,0.3,1971.21,5275.3312,grid,False,13.11505,8.69317
380,1411379,#365839459,0013A20041BEC495,Knazio (Lovebridge) Poddighe,Petifu Junction,2020-12-08,0.3,1971.21,85447.189352000515201,grid,False,0.0,0.0
381,1411380,#919376081,0013A20041BEBA49,Alusine  I Kamara,Petifu Junction,2020-12-08,0.3,1971.21,6674.38206999994899,grid,False,-13.10423,8.6986
382,1411381,#656143696,0013A20041BEB97C,Mohamed  Sesay,Petifu Junction,2020-12-08,0.3,1971.21,9932.5565871243141451412,grid,False,0.0,0.0
383,1411382,#464084193,0013A20041BEB25E,Sidique Kamara,Petifu Junction,2020-12-08,0.3,1971.21,7468.7480169999994899,grid,False,13.0,8.0
384,1411383,#031798547,0013A20041BEAA53,Fatmata Gbla,Petifu Junction,2020-12-08,0.3,1971.21,-12937.566733,grid,False,13.10954,8.69369
385,1411384,#762065438,0013A20041BE9410,Fatmata Bangura,Petifu Junction,2020-12-08,1.0,5541.91,-2189.056971,grid,False,13.11039,8.69928
386,1411385,#884659795,0013A20041BE92AC,Warrah Koroma,Petifu Junction,2020-12-08,0.3,1971.21,-5205.91737600041833301,grid,False,0.0,0.0
387,1411386,#407463375,0013A20041BE9162,Ansumana  Koroma- Mosque,Petifu Junction,2020-12-08,0.3,1971.21,12084.3850410000005101,grid,False,-13.1108,8.69964
388,1411387,#596029566,0013A20041BE914C,Sinnah  Kamara,Petifu Junction,2020-12-08,0.3,1971.21,5124.519831,grid,False,0.0,0.0
389,1411388,#237650007,0013A20041BE90B3,N'Koya Kamara,Petifu Junction,2020-12-08,0.3,1971.21,-18200.49,grid,False,13.11582,8.69361
390,1411389,#043412591,0013A20041B8F65E,Lovetta Hawanatu Kamara,Petifu Junction,2020-12-08,0.3,1971.21,3954.935340000000056111,grid,False,0.0,0.0
391,1411390,#329904375,0013A20041B8F561,Mohamed Bai Fofanah,Petifu Junction,2020-12-08,0.3,1971.21,3911.7438449994929106102,grid,False,13.11165,8.69952
392,1411391,#262306883,0013A20041B8F4AA,Emma P Bangura,Petifu Junction,2020-12-08,0.3,1971.21,3064.92171,grid,False,-13.10539,8.69445
393,1411392,#997244792,0013A20041B8F483,Sembu Koroma,Petifu Junction,2020-12-08,0.3,1971.21,-82161.9544500000005101,grid,False,-13.11456,8.70006
394,1411393,#244820119,0013A20041B8F3E3,Aruna Kamara,Petifu Junction,2020-12-08,0.3,1971.21,8147.87251899948984899,grid,False,-13.10866,8.69581
395,1411394,#084812691,0013A20041B8F27D,Lokomasama Bank,Petifu Junction,2020-12-08,0.3,1971.21,-35773.37665,grid,False,13.10632,8.69579
396,1411395,#345488854,0013A20041B8E950,Fatmata Bangura,Petifu Junction,2020-12-08,0.3,1971.21,-4639.5070129999994899,grid,False,13.14962,8.53117
397,1411396,#193001381,0013A20041B8E949,Alusine Bangura,Petifu Junction,2020-12-08,0.3,1971.21,7156.741590000511589492,grid,False,13.11242,8.69957
398,1411397,#138755831,0013A20041B8E93D,Shebura Kamara,Petifu Junction,2020-12-08,0.3,1971.21,4255.1328580051004899,grid,False,13.0,8.0
399,1411398,#833782200,0013A20041B8DA4B,Theresa Conteh,Petifu Junction,2020-12-08,0.3,1971.21,38092.706923332314990097333331633,grid,False,0.0,0.0
400,1411399,#753314555,0013A20041B8DA1B,Bai Sama Kamara,Petifu Junction,2020-12-08,0.3,1971.21,-11681.8382300010186697,grid,False,0.0,8.69789
401,1411400,#561495572,0013A20041B8D9A0,Sheik Hamid Kamara,Petifu Junction,2020-12-08,0.3,1971.21,-2124.446389999997163844,grid,False,13.11594,8.69354
402,1411433,#842288033,0013A200419AD02D,Pa Brima Kanu,Petifu Junction,2020-12-08,0.3,1971.21,-55726.2586766666673468,grid,False,13.0,8.0
403,1411434,#542358402,0013A200419AD027,Lamin Kargbo,Petifu Junction,2020-12-08,0.3,1971.21,-808.7685,grid,False,0.0,0.0
404,1411435,#212082296,0013A200419AD026,Alie S Kabia,Petifu Junction,2020-12-08,1.0,5541.91,4517.4701011989795108,grid,False,0.0,0.0
405,1411436,#062654629,0013A20041958670,Ada Mattia Kamara,Petifu Junction,2020-12-08,0.3,1971.21,7218.07591171428572886,grid,False,0.0,0.0
406,1411437,#262344546,0013A2004195866F,Moses Momoh Kamara,Petifu Junction,2020-12-08,0.3,2471.21,-7075.591810952190412056,grid,False,0.0,0.0
407,1411438,#136494255,0013A2004195863F,Fatmata Kamara,Petifu Junction,2020-12-08,2.0,10642.91,5648.0290699999994899,grid,False,13.10954,8.69369
408,1411439,#639787934,0013A200419585FA,Mohamed Ya-bai Kanu,Petifu Junction,2020-12-08,0.3,1971.21,2695.004379713776863302,grid,False,13.10527,8.69785
409,1411440,#179378669,0013A200419585F9,Amara Salieu Bangura- Central Mosque,Petifu Junction,2020-12-08,0.3,1971.21,47192.977442428574489171428572886,grid,False,0.0,0.0
410,1411441,#952822121,0013A200419585F1,Isatu T Kamara,Petifu Junction,2020-12-08,2.0,10642.91,11366.19762585714164019,grid,False,0.0,0.0
411,1411442,#426721300,0013A200419585EF,Issa Kanu,Petifu Junction,2020-12-08,0.3,1971.21,2121.27833885714546594,grid,False,0.0,0.0
412,1411443,#765725558,0013A200419585EC,Mammie Haja Dumbuya,Petifu Junction,2020-12-08,0.3,1971.21,-106134.228416,grid,False,0.0,0.0
413,1411444,#786136447,0013A200419585EB,Mohamed I Conteh,Petifu Junction,2020-12-08,0.3,1971.21,10872.961112571383097471,grid,False,13.10527,8.6958
414,1411445,#404584222,0013A200419585B0,Mamound Kamara Ahmadiyya Mosque,Petifu Junction,2020-12-08,0.3,1971.21,19752.526662400000923281,grid,False,0.0,0.0
415,1411446,#100545888,0013A20041958599,Ya-Amie Sankoh,Petifu Junction,2020-12-08,1.5,8092.41,35711.140871690472522614285713557,grid,False,0.0,0.0
416,1411447,#153605855,0013A20041958593,Posseh Bangura,Petifu Junction,2020-12-08,0.3,1971.21,4144.076196872441559186,grid,False,0.0,0.0
417,1411448,#945546448,0013A20041958579,Chernor Hazard Kamara,Petifu Junction,2020-12-08,0.3,1971.21,10834.020838547602997444,grid,False,0.0,0.0
418,1411449,#980100526,0013A20041958570,Mr. Alimamy Yamba Sankoh,Petifu Junction,2020-12-08,0.3,1971.21,-64930.91813600000005101,grid,False,0.0,0.0
419,1411450,#142885314,0013A20041958569,Pa Osman Bangura,Petifu Junction,2020-12-08,0.3,1971.21,4553.21126628571569942,grid,False,13.10577,8.6947
420,1411451,#956317945,0013A20041958568,Ya-Yainkain Cole Fofanah,Petifu Junction,2020-12-08,0.3,1971.21,6646.300074285713434576,grid,False,13.1051,8.69557
421,1411452,#681648133,0013A20041958560,Neneh D Conteh,Petifu Junction,2020-12-08,0.3,1971.21,-810.84358157142879733,grid,False,0.0,0.0
422,1411453,#641551949,0013A20041958551,Samuel Kanu 1/2,Petifu Junction,2020-12-08,0.3,1971.21,21633.778339989797459294,grid,False,0.0,0.0
423,1411454,#563281506,0013A2004195854F,Mameh Kargbo,Petifu Junction,2020-12-08,0.3,1971.21,-13903.2581934285927799,grid,False,0.0,0.0
424,1411455,#747545803,0013A2004195853E,Bai-Sama B Kamara,Petifu Junction,2020-12-08,0.3,1971.21,2264.46658657143379631,grid,False,0.0,0.0
425,1411456,#498799626,0013A2004195852C,Fatmata Sesay (pharmacy),Petifu Junction,2020-12-08,0.3,1971.21,10745.66830928571513831,grid,False,0.0,0.0
426,1411457,#417911662,0013A20041958523,CHO PTFU Tucker,Petifu Junction,2020-12-08,0.3,1971.21,27149.729461142863527123,grid,False,13.0,8.0
427,1411458,#180692163,0013A20041958513,Bai Sama Bangura,Petifu Junction,2020-12-08,0.3,1971.21,-1794.0754974439110267,grid,False,0.0,0.0
428,1411459,#450458658,0013A2004195850F,Yambora Koroma,Petifu Junction,2020-12-08,0.3,1971.21,4516.1898659949010404,grid,False,0.0,0.0
429,1411460,#804920831,0013A2004195850C,Ya Memuna Koroma,Petifu Junction,2020-12-08,0.3,1971.21,-194.35945285714061999,grid,False,0.0,0.0
430,1411461,#287905328,0013A2004195850B,Isha  Bangura,Petifu Junction,2020-12-08,0.3,1971.21,908.81240813774287297,grid,False,13.10594,8.69458
431,1411462,#574516497,0013A20041958505,Momoh Kanu ,Petifu Junction,2020-12-08,0.3,1971.21,10451.684608571433332119,grid,False,0.0,0.0
432,1411463,#029991299,0013A20041958504,Komrabai Kanu,Petifu Junction,2020-12-08,0.3,1971.21,15305.609314288778676486,grid,False,0.0,0.0
433,1411464,#784119738,0013A20041958502,Richard S Kamara,Petifu Junction,2020-12-08,0.7,4011.61,12828.1135538571376104,grid,False,0.0,0.0
434,1411465,#450146161,0013A200419584A3,Manfred Stade,Petifu Junction,2020-12-08,0.3,1971.21,20988.98436366666760185,grid,False,0.0,0.0
435,1411466,#402398014,0013A2004195846E,Alhaji Bashir Kamara,Petifu Junction,2020-12-08,4.7,24415.61,-14639.006985856121659533,grid,False,0.0,0.0
436,1411467,#352522107,0013A20041958467,Salamatu Bangura,Petifu Junction,2020-12-08,0.3,1971.21,1649.12509494899,grid,False,0.0,0.0
437,1411468,#284700580,0013A200419583D5,Isaac Aruna Kanu- Wielding Shop,Petifu Junction,2020-12-08,0.3,1971.21,3878.073414280618147696,grid,False,0.0,0.0
438,1411469,#861666155,0013A20041958334,Christiana Mabinty Kamara,Petifu Junction,2020-12-08,0.3,1971.21,-1788.426596430608909342,grid,False,0.0,0.0
439,1411470,#479012998,0013A20041958316,Ya-Marie Conteh,Petifu Junction,2020-12-08,0.3,1971.21,3942.9650300000010202,grid,False,0.0,0.0
440,1411471,#570330447,0013A20041957F1C,Pa Santigie Bockarie Kamara,Petifu Junction,2020-12-08,0.3,1971.21,12969.1038327552706404,grid,False,0.0,0.0
441,1411472,#455300260,0013A20041957ED5,Chief Obai  Fath,Petifu Junction,2020-12-08,0.3,1971.21,28766.109115195572753092,grid,False,0.0,0.0
442,1411473,#493793565,0013A20041957CA3,Ibrahim J. Bangura,Petifu Junction,2020-12-08,0.3,1971.21,-33599.650153144286443,grid,False,13.10577,8.6964
443,1411474,#819663639,0013A20041957CA1,Amara Salieu Bangura(2),Petifu Junction,2020-12-08,0.3,1971.21,6666.12736000000005101,grid,False,0.0,0.0
444,1411475,#332470202,0013A20041957C9D,Gibrilla Sesay,Petifu Junction,2020-12-08,0.3,1971.21,158.359690428571284286,grid,False,0.0,0.0
445,1411476,#164835815,0013A20041957C8E,Pa Osman Turay,Petifu Junction,2020-12-08,0.3,1971.21,6873.438633282655874772,grid,False,0.0,0.0
446,1411477,#799578845,0013A20041957C7D,Tembu Mansaray (TM Poultry),Petifu Junction,2020-12-08,0.2,1461.11,-81954.1176267142833824,grid,False,-13.11438,8.69173
447,1411478,#413342946,0013A20041957C7A,Mr. Fallah Bangura,Petifu Junction,2020-12-08,1.3,7072.21,11525.685524290814995686,grid,False,13.10647,8.6944
448,1411479,#574935382,0013A20041957C75,Ibrahim Sorie Kamara,Petifu Junction,2020-12-08,0.2,1461.11,3475.6197109523829442,grid,False,0.0,0.0
449,1411480,#453608725,0013A20041957C63,Maligie Moseray Kamara,Petifu Junction,2020-12-08,0.2,1461.11,6981.4524906132859329,grid,False,13.10629,8.69464
450,1411481,#329711280,0013A20041957C60,Amara Salieu Bangura(4),Petifu Junction,2020-12-08,0.2,1461.11,8426.15711057244726299,grid,False,0.0,0.0
451,1411482,#245043245,0013A20041957B38,Rugiatu Kamara,Petifu Junction,2020-12-08,0.2,1461.11,-99935.751153142853575072,grid,False,13.10686,8.69303
452,1411483,#385349620,0013A20041957B36,Abdul Karim Sesay,Petifu Junction,2020-12-08,2.0,10642.91,18534.186007666667831395,grid,False,0.0,0.0
453,1411484,#299154415,0013A20041957B25,Amara Sesay,Petifu Junction,2020-12-08,0.2,1461.11,59829.87035616334604279,grid,False,13.19933,8.42819
454,1411485,#483106606,0013A200419579D3,Dauda Mansaray,Petifu Junction,2020-12-08,0.2,1461.11,94120.63473834704669018,grid,False,0.0,0.0
455,1411486,#419375350,0013A200419579BC,Foday Kamara,Petifu Junction,2020-12-08,0.2,1461.11,10630.280873144390220716,grid,False,0.0,0.0
456,1411487,#117337810,0013A2004195799A,Morlai Kanu,Petifu Junction,2020-12-08,0.2,1461.11,1840.596242576529507301714286443,grid,False,0.0,0.0
457,1411488,#349902243,0013A20041957997,Sheik Mohamed Conteh,Petifu Junction,2020-12-08,0.2,1461.11,8187.346813719384506281428572886,grid,False,0.0,0.0
458,1411489,#720505340,0013A20041957996,Abdul Bangura,Petifu Junction,2020-12-08,0.2,1461.11,809.125283999951125861571428571428572886,grid,False,0.0,0.0
459,1411490,#430075153,0013A20041957993,Isatu Kargbo,Petifu Junction,2020-12-08,0.2,1461.11,482.21930714285688052,grid,False,0.0,0.0
460,1411491,#830726653,0013A2004195798E,Mafereh Kamara,Petifu Junction,2020-12-08,0.2,1461.11,-4525.67178252956895823,grid,False,-13.10524,8.69803
461,1411492,#776984376,0013A2004195798C,Memunatu Barrie,Petifu Junction,2020-12-08,0.2,1461.11,-1240.959363667175190457666668367,grid,False,0.0,0.0
462,1411493,#604565703,0013A20041957988,Ansumana B.M Kamara,Petifu Junction,2020-12-08,1.3,7072.21,5236.270033989802253505285713557,grid,False,0.0,0.0
463,1411494,#126729680,0013A20041957985,Fr. Mark A Kamara- Church,Petifu Junction,2020-12-08,0.2,1461.11,56799.92848000000056111,grid,False,0.0,0.0
464,1411495,#284781709,0013A20041957980,Seneh Kamara,Petifu Junction,2020-12-08,1.6,8602.51,345.080637153080392165714286443,grid,False,0.0,0.0
465,1411496,#045821415,0013A2004195797C,Ya-Isatu Kamara,Petifu Junction,2020-12-08,0.2,1461.11,1178.311013428570911184285713557,grid,False,0.0,0.0
466,1411497,#062612656,0013A20041957978,Fatmata Kargbo,Petifu Junction,2020-12-08,0.2,1461.11,3188.325104000004646282285714285714286443,grid,False,13.1108,8.69621
467,1411498,#175998929,0013A20041957976,Pa Santigie Bockarie Kamara,Petifu Junction,2020-12-08,0.2,1461.11,-1298.6229902908191479,grid,False,-13.11317,8.69319
468,1411499,#540512586,0013A20041957971,Mohamed  Bangura,Petifu Junction,2020-12-08,0.2,1461.11,11895.4442864260239163,grid,False,0.0,0.0
469,1411500,#709411856,0013A20041957956,Fr. Mark A. Kamara Residence,Petifu Junction,2020-12-08,1.2,6562.11,25136.446714285714795814285713557,grid,False,0.0,0.0
470,1411501,#490450603,0013A20041957952,Musa Kamara,Petifu Junction,2020-12-08,0.2,1461.11,9402.926484523809306652666668367,grid,False,0.0,0.0
471,1411534,#135824214,0013A20041814D37,Barbah Bangura,Petifu Junction,2020-12-08,0.2,1461.11,4407.718188271432851896285713557,grid,False,0.0,0.0
472,1411535,#679043691,0013A20041814D35,Ansumana Koroma,Petifu Junction,2020-12-08,0.2,1461.11,9205.5792768622524606352,grid,False,-13.1114,8.69932
473,1411536,#915019139,0013A20041814D0A,Alusine  Kamara,Petifu Junction,2020-12-08,0.2,1461.11,-1107.0999300051004899,grid,False,0.0,0.0
474,1411537,#582270050,0013A20041814D09,Kamanda Sahid Turay,Petifu Junction,2020-12-08,0.2,1461.11,26871.271223999999571516,grid,False,0.0,0.0
475,1411538,#546353831,0013A20041814CB4,Salamatu Sankoh,Petifu Junction,2020-12-08,0.2,1461.11,6364.099572860205031165714286443,grid,False,0.0,0.0
476,1411539,#948388344,0013A20041814C9C,Alfred  Younge,Petifu Junction,2020-12-08,0.2,1461.11,27708.59452100000556009,grid,False,0.0,0.0
477,1411540,#700106537,0013A20041814C92,Hassan Morocco Sesay,Petifu Junction,2020-12-08,0.2,1461.11,-1237.036450571428734441957140671,grid,False,0.0,0.0
478,1411541,#201098692,0013A20041814C0D,Abass Kamara,Petifu Junction,2020-12-08,0.2,1461.11,6523.578577206263490853142859329,grid,False,-13.23808,8.69634
479,1411542,#024769718,0013A20041763069,Mafereh Kamara,Petifu Junction,2020-12-08,0.2,1461.11,-52122.171356666669251173333331633,grid,False,0.0,0.0
480,1411543,#784160971,0013A20041763039,Amara Salieu Bangura (3),Petifu Junction,2020-12-08,2.0,10642.91,481.745824000000269624285713557,grid,False,13.10527,8.69666
481,1411544,#406636924,0013A20041763037,Fatmata Kanu,Petifu Junction,2020-12-08,0.2,1461.11,30303.036215714290764275714286443,grid,False,0.0,0.0
482,1411545,#183853114,0013A20041763036,Kadiatu I Kamara,Petifu Junction,2020-12-08,1.5,8092.41,5982.860091142873137407,grid,False,0.0,0.0
483,1411546,#709849277,0013A2004176302F,Bashiru Fallah Bangura- Charging Centre,Petifu Junction,2020-12-08,5.2,26966.11,166056.942771428585055528571427114,grid,False,0.0,0.0
484,1411547,#721385140,0013A20041672106,Isatu  Dumbuya,Petifu Junction,2020-12-08,0.2,1461.11,-161.29975,grid,False,0.0,0.0
485,1411548,#588329238,0013A20041BEAA2E,Tity Quee  (JANE),Njama,2020-12-08,0.2,1461.11,10158.1579424000010202,grid,False,11.94017,8.07966
486,1411549,#036499466,0013A20041B8F6AA,Moses Munda Mattia  2 (OLD SOJA),Njama,2020-12-08,0.2,1461.11,114660.29939300000117323,grid,False,11.94008,8.08123
487,1411550,#684183945,0013A20041B8F67E,Marie Sam-King,Njama,2020-12-08,0.2,1461.11,-9564.1820499999994899,grid,False,-11.93948,8.08205
488,1411551,#246174944,0013A20041B8F63D,Albert Kappia Sanja,Njama,2020-12-08,0.2,1461.11,-74964.468621999999000204,grid,False,11.93836,0.0
489,1411552,#051206985,0013A20041B8F59F,Mustapha Koroma,Njama,2020-12-08,0.2,1461.11,367.3534600000005101,grid,False,11.93066,8.0817
490,1411553,#690410728,0013A20041B8F2BA,Alhaji Mohamed Fuad,Njama,2020-12-08,0.6,3501.51,41618.26137588097720339,grid,False,11.93875,8.07968
491,1411554,#554301933,0013A20041B8E954,Michael Benya,Njama,2020-12-08,0.2,1461.11,19999.686260000004039992,grid,False,-11.93938,8.08126
492,1411555,#169988018,0013A20041B8E94B,Hon.Sombie Lavalie,Njama,2020-12-08,0.2,1461.11,-23914.60454,grid,False,-11.94233,8.08226
493,1411556,#490998215,0013A20041B8E943,Brima D. Rogers(  KOSHO),Njama,2020-12-08,0.2,1461.11,-15807.8841891999989798,grid,False,11.94149,8.0816
494,1411557,#281066956,0013A20041B8E941,Emmanuel Quee,Njama,2020-12-08,0.2,1461.11,32139.11436,grid,False,-11.93907,8.08085
495,1411558,#793989969,0013A20041B8E938,Gina Quee,Njama,2020-12-08,0.2,1461.11,1234.93924000000061212,grid,False,11.9393,8.07978
496,1411559,#124009217,0013A20041B8E934,Matthew Jangatti,Njama,2020-12-08,0.2,1461.11,650.232120000000158131,grid,False,11.939,8.07949
497,1411560,#327526134,0013A20041B8E933,Mustapha Nabay,Njama,2020-12-08,0.2,1461.11,-21447.45144,grid,False,-11.9384,8.07992
498,1411561,#862660069,0013A20041B8DB44,Moses Munda Mattia  1 (OLD SOJA),Njama,2020-12-08,0.2,1461.11,98394.889916000000336666,grid,False,11.94004,8.08116
499,1411562,#730598373,0013A20041B8DB33,Alhaji Sidique Saccoh,Njama,2020-12-08,0.2,1461.11,-1506.23614,grid,False,11.93976,8.07995
500,1411563,#066384185,0013A20041B8DB2E,John Piawai 1,Njama,2020-12-08,0.2,1461.11,3044.414082823571540541,grid,False,11.94021,8.08237
501,1411564,#449527697,0013A20041B8DAC7,Henry Lassie  2,Njama,2020-12-08,0.2,1961.11,-2675.36514,grid,False,11.93686,8.08057
502,1411565,#927722679,0013A20041B8DAB9,Musa Saccoh    (Mohamed),Njama,2020-12-08,0.2,1461.11,-37449.7770099999994899,grid,False,11.93979,8.08014
503,1411631,#254628538,0013A200415B8C2E,Abu  Mansaray,Njama,2020-12-08,0.2,1461.11,4903.063340001532978025,grid,False,11.93786,8.08089
504,1411632,#904315412,0013A200415B8C1A,Jonathan Dambo    (Honourable),Njama,2020-12-08,0.2,1461.11,120200.820390000000591716,grid,False,11.94086,8.08224
505,1411633,#699463533,0013A200415B8C06,David Sokpo,Njama,2020-12-08,0.2,1461.11,-5613.789886154758747,grid,False,11.94121,8.08128
506,1411634,#792525507,0013A200415B8BF8,Mohamed Kallon,Njama,2020-12-08,0.2,1461.11,452.9300999999994899,grid,False,11.93854,8.08125
507,1411635,#342216613,0013A200415B8BF2,Jonathan B. Kailie (Borboh),Njama,2020-12-08,0.2,1461.11,7580.70093900000005101,grid,False,11.94006,8.08213
508,1411636,#338497720,0013A200415B89C7,Mariama B. Senesie,Njama,2020-12-08,0.2,1461.11,12820.28436000000010202,grid,False,11.93759,8.08054
509,1411637,#390322865,0013A200415B89AE,Borboh M. Mustapha,Njama,2020-12-08,0.2,1461.11,7341.0245588249994899,grid,False,11.93701,8.08085
510,1411638,#966662302,0013A200415559AF,Alfred Fomulu ( Mitawai,Njama,2020-12-08,0.2,1461.11,-31929.4686099999989798,grid,False,11.93749,8.07927
511,1411639,#098716391,0013A200415559AE,Musu Amara,Njama,2020-12-08,0.2,1461.11,14787.56124000000209141,grid,False,11.94005,8.08182
512,1411640,#752020494,0013A200415559AD,Alusine Gboya,Njama,2020-12-08,0.2,1461.11,33502.708440000001866966,grid,False,11.94038,8.07784
513,1411641,#564747766,0013A2004155371B,Daniel Benya,Njama,2020-12-08,0.2,1461.11,31728.8419099984712303,grid,False,11.93968,8.08195
514,1411642,#914568273,0013A20041553687,Doris Gbouma,Njama,2020-12-08,0.2,1461.11,5632.372640000001152826,grid,False,11.93735,8.08081
515,1411643,#058003634,0013A20041553681,John Ndanemah  (Peter),Njama,2020-12-08,0.2,1461.11,1650.788386,grid,False,11.93947,8.07944
516,1411644,#695904690,0013A2004151589E,John Garmui  2,Njama,2020-12-08,0.2,1461.11,22441.90290000000010202,grid,False,11.93839,8.08002
517,1411645,#350533340,0013A20041515886,John Garmui  3,Njama,2020-12-08,0.2,1461.11,-15356.6255625883664899,grid,False,11.93828,8.07984
518,1411646,#228854530,0013A20041515884,Emmanuel  F. George (SPEAKER)  2,Njama,2020-12-08,0.2,1461.11,-23662.5543559999994899,grid,False,11.93846,8.0811
519,1411647,#458146696,0013A2004151587F,Margaret Mbaimba  ,Njama,2020-12-08,0.6,3501.51,9475.736881000001295654,grid,False,11.93929,8.0784
520,1411648,#032306139,0013A200414FAFCE,Daniel Charles  (Borboh),Njama,2020-12-08,0.2,1461.11,14059.612664999490899796,grid,False,11.9381,8.081
521,1411649,#175383785,0013A200414FAFAA,Francis Alieu,Njama,2020-12-08,0.2,1461.11,-4875.08465699999994899,grid,False,11.93997,8.07864
522,1411650,#457069006,0013A20041080BA8,Augustine P.  Maboh,Njama,2020-12-08,0.2,1461.11,-34663.878957971431393739,grid,True,11.938441,8.08085
523,1411651,#953989124,0013A20041B122CC,Edison Gamoh,Mokolleh,2020-12-08,0.2,1461.11,65200.326820000000576413,grid,False,12.16411,7.71602
524,1411652,#563214428,0013A20041B122C6,Julius J.P Fatorma,Mokolleh,2020-12-08,0.2,1461.11,-5030.86926499999943889,grid,False,12.0,7.0
525,1411653,#740734780,0013A20041B1229D,Guest House,Mokolleh,2020-12-08,0.2,1461.11,1458.17950900000040808,grid,False,12.16462,7.71698
526,1411654,#829584308,0013A20041B12288,Fatmata Kamanda,Mokolleh,2020-12-08,0.2,1461.11,2351.66940200000045909,grid,False,12.0,7.0
527,1411655,#694743195,0013A20041B1226B,Wuya Korgbai 2,Mokolleh,2020-12-08,0.2,1461.11,21910.2345900000005101,grid,False,12.0,7.0
528,1411656,#279824186,0013A20041B12219,Moses Williams,Mokolleh,2020-12-08,0.2,1461.11,4471.27938000000096919,grid,False,12.76354,7.71544
529,1411657,#879763285,0013A20041B12201,Doris Moseray,Mokolleh,2020-12-08,0.2,1461.11,-2366.17452299999903081,grid,False,12.1648,7.71712
530,1411658,#262484153,0013A20041B121B0,Afred Barber   (Sunduba),Mokolleh,2020-12-08,0.2,1461.11,-14950.255428428576069024,grid,False,12.16423,7.71698
531,1411659,#617700857,0013A20041B1219D,Wuyah Korgbai ,Mokolleh,2020-12-08,0.2,1461.11,-6114.2949205714260938,grid,False,12.16507,7.71741
532,1411660,#683697349,0013A20041B12191,Police Post,Mokolleh,2020-12-08,0.2,1461.11,-7870.2525252867332469,grid,False,0.0,0.0
533,1411661,#285987632,0013A20041B12166,Michael Vandy 1,Mokolleh,2020-12-08,0.2,1461.11,1080.768818714286830676,grid,False,12.16405,7.71574
534,1411662,#500571623,0013A20041B1201A,Solomon Gamoh,Mokolleh,2020-12-08,0.2,1461.11,37054.19595800000066313,grid,False,12.16392,7.71604
535,1411663,#907350080,0013A20041B12006,Samuel Brainard,Mokolleh,2020-12-08,0.2,1461.11,11628.51700200000107121,grid,False,12.16536,7.71764
536,1411729,#741702181,0013A20041A77F75,Mr. Ibrahim B Kamara (Mr. IB),Masimera,2020-12-08,0.2,1461.11,13719.336327143879753444,grid,False,12.44967,8.64298
537,1411730,#472111770,0013A20041A77F74,Fatmata Bangura,Masimera,2020-12-08,0.2,1461.11,8788.676090000000617221,grid,False,12.44906,8.6448
538,1411731,#392998042,0013A20041A77F6B,Saffia Fofanah,Masimera,2020-12-08,0.2,1461.11,-1100.93992999897974899,grid,False,12.45057,8.64595
539,1411732,#873833869,0013A20041A77EFC,Osman Bangura (Chief),Masimera,2020-12-08,0.2,1461.11,-453.984613,grid,False,12.45069,8.64598
540,1411733,#789498497,0013A20041A77EF7,Alie B Bangura (Cardillak,Masimera,2020-12-08,0.2,1461.11,4083.12237099949046111,grid,False,12.45026,8.64606
541,1411734,#147883503,0013A20041A77EF5,Sheka  Dawo,Masimera,2020-12-08,0.2,1461.11,180.06213428571411811,grid,False,12.45198,8.64633
542,1411735,#251639401,0013A20041A77EF4,Osman Bangura (Town Chief),Masimera,2020-12-08,0.2,1461.11,-89849.00556,grid,False,12.45084,8.64608
543,1411736,#560220021,0013A20041A77EE7,Pa Markie Sankoh,Masimera,2020-12-08,0.2,1461.11,1061.02426857142701198,grid,False,12.45159,8.84656
544,1411737,#340266550,0013A20041A77EE3,Bai-Yolla  Bangura,Masimera,2020-12-08,0.2,1461.11,1476.22726499999994899,grid,False,12.44966,8.64524
545,1411738,#701888778,0013A20041A77EDE,Mabinty  Kanu,Masimera,2020-12-08,0.2,1461.11,-312.318685713266656181,grid,False,0.0,0.0
546,1411739,#484819176,0013A20041A77ED8,Moray Sesay (Court Clerk),Masimera,2020-12-08,0.2,1461.11,-33191.52941,grid,False,12.45011,8.64522
547,1411740,#224697578,0013A20041A77ED2,Alhaji S Bangura (Lotto) No.2,Masimera,2020-12-08,0.2,1461.11,829.72430685714061999,grid,False,12.45217,8.64687
548,1411741,#938181921,0013A20041A77ECF,Mustapha Kargbo (Ojuman),Masimera,2020-12-08,0.2,1461.11,22610.09570237586901098,grid,False,12.45108,8.64635
549,1411742,#857322037,0013A20041A77EC8,Mamusu Bangura,Masimera,2020-12-08,0.2,1461.11,4853.36143714285978809,grid,False,12.4487,8.64608
550,1411743,#785007748,0013A20041A77EC0,Rashid Bangura,Masimera,2020-12-08,0.2,1461.11,-189.27322500000015303,grid,False,12.45124,8.64635
551,1411744,#254115710,0013A20041A77E91,John S Bangura (tozzo),Masimera,2020-12-08,0.2,1461.11,1324.15933142857130469,grid,False,12.4511,8.64647
552,1411745,#840422420,0013A20041A18E49,Osman T Kamara (TTMP),Masimera,2020-12-08,0.2,1461.11,4847.97590160000112222,grid,False,12.45026,8.64323
553,1411746,#714292502,0013A200419AD568,Isatu Conteh,Masimera,2020-12-08,0.2,1461.11,14894.9461090000005101,grid,False,12.45098,8.64621
554,1411747,#886040966,0013A200419AD396,Augustine U Koroma,Masimera,2020-12-08,0.8,4521.71,-55797.897199999983758416,grid,False,12.44656,8.64273
555,1411748,#082118104,0013A20041957B2E,Abdul Karim Kargbo,Masimera,2020-12-08,0.2,1461.11,6392.34920571479695108,grid,False,0.0,0.0
556,1411749,#562469431,0013A2004176AA76,Baramy Conteh,Masimera,2020-12-08,0.2,1461.11,3252.5179700000005101,grid,False,12.44991,8.64512
557,1411750,#260606277,0013A20041763023,Alhaji S Bangura,Masimera,2020-12-08,0.2,1461.11,-105668.26939200000005101,grid,False,0.0,0.0
558,1411751,#129986993,0013A20041C53BBA,Jonathan George 1,Mano Dasse,2020-12-08,0.2,1461.11,6880.8423900000015303,grid,False,12.09453,8.03805
559,1411752,#365171966,0013A20041C304DA,Ishmail Abu,Mano Dasse,2020-12-08,0.2,1461.11,-5526.908399999994868394,grid,False,12.09125,8.03483
560,1411753,#773400516,0013A20041BEA017,Musa Jengo,Mano Dasse,2020-12-08,0.2,1461.11,-2038.145509999994225668,grid,False,12.09692,8.03607
561,1411754,#096440628,0013A20041BE942F,Joseph George,Mano Dasse,2020-12-08,0.2,1461.11,1882.196003438798330196,grid,False,12.09561,8.03736
562,1411755,#040436277,0013A20041B8DA70,Joseph Kabba,Mano Dasse,2020-12-08,0.2,1461.11,1182.6668500000005101,grid,False,12.08924,8.04142
563,1411756,#806689135,0013A20041B122B0,Abu Sheriff,Mano Dasse,2020-12-08,0.2,1461.11,-5253.08458999846949596,grid,False,12.08808,8.04046
564,1411757,#589841425,0013A20041B1229A,Junisa Gbondo,Mano Dasse,2020-12-08,0.2,1461.11,-20216.16777600051015101,grid,False,12.08869,8.03066
565,1411758,#188949722,0013A20041B1227E,Agnes Bangura,Mano Dasse,2020-12-08,3.5,18294.41,24022.36284000000058059582,grid,False,12.09116,8.03617
566,1411759,#907159123,0013A20041B12273,Brima Mohamed Koroma,Mano Dasse,2020-12-08,0.2,1461.11,3815.17412000000045909,grid,False,12.09635,8.03651
567,1411760,#311084128,0013A20041B1226E,Fatmata Wurie,Mano Dasse,2020-12-08,0.2,1461.11,18276.8672500000005101,grid,False,12.0889,8.04078
568,1411239,#714041636,0013A2004167211B,Solomon Abu   Shop,Senehun,2020-12-08,0.3,1971.21,-59321.009665857145772,grid,False,11.94641,8.169
569,1411240,#951447601,0013A2004167210E,Micheal A F Abdulai (No.1),Senehun,2020-12-08,0.3,1971.21,15633.619125238099395653142859329,grid,False,11.93906,8.16869
570,1411241,#943239007,0013A2004167210D,Patrick Palmer 1,Senehun,2020-12-08,0.3,2471.21,18330.898728357155974,grid,False,12.62923,9.0689
571,1411242,#440209793,0013A20041672102,Gbessay  Amara,Senehun,2020-12-08,0.3,1971.21,5959.4612801428623896,grid,False,11.95074,8.16955
572,1411243,#807192785,0013A200416720FE,Lucia Johns,Senehun,2020-12-08,0.3,1971.21,773.86847571428838138,grid,False,11.94912,8.16893
573,1411244,#211040158,0013A200416720FB,James  B Lahai,Senehun,2020-12-08,0.3,1971.21,10729.409773428573375696,grid,False,11.94656,8.16848
574,1411245,#369745859,0013A200416720F6,Saidu Kanu,Senehun,2020-12-08,0.3,1971.21,11201.3864100000005101,grid,False,-11.94907,8.16835
575,1411246,#787529352,0013A200416720F0,Mohamed  S kamara,Senehun,2020-12-08,0.3,1971.21,21067.169140000000071414,grid,False,11.9493,8.16793
576,1411247,#116406136,0013A200416720EF,Lucy French,Senehun,2020-12-08,0.3,1971.21,32494.37481,grid,False,11.9467,8.16923
577,1411248,#703615237,0013A200416720E1,George Sam,Senehun,2020-12-08,0.3,1971.21,3786.1071200000015303,grid,False,11.9469,8.16936
578,1411249,#138972808,0013A200416720DF,Eggie Manga,Senehun,2020-12-08,0.3,1971.21,7386.31278,grid,False,11.94783,8.16995
579,1411250,#420166964,0013A20041671B2D,Cicilia M Laggah,Senehun,2020-12-08,0.3,1971.21,-16772.8044064285733961,grid,False,11.94832,8.16819
580,1411251,#922657510,0013A20041671B29,Dominic Masuba,Senehun,2020-12-08,0.3,1971.21,14067.837250001021291614,grid,False,11.94805,8.1688
581,1411252,#976060783,0013A20041671B0C,Ambrose Fogbawa,Senehun,2020-12-08,2.0,10642.91,20946.930690005101168333,grid,False,11.94743,8.16756
582,1411253,#263748870,0013A20041671B0B,Samuel Kamara,Senehun,2020-12-08,0.3,1971.21,-40852.8267399999994899,grid,False,-11.94384,8.16714
583,1411254,#427874468,0013A20041671A6C,Jamiru Gomoh,Senehun,2020-12-08,0.3,1971.21,-50625.328052571415912204,grid,True,11.95009,8.16791
584,1411255,#084779980,0013A20041671A5A,Janet kondolomo,Senehun,2020-12-08,0.3,1971.21,1826.922757,grid,False,11.9474,8.16992
585,1411256,#703374259,0013A2004167198E,Joseph G Kobba,Senehun,2020-12-08,0.3,1971.21,2863.4827600010217303,grid,False,-11.94862,8.16784
586,1411257,#509467961,0013A2004167198B,John Smart,Senehun,2020-12-08,0.3,1971.21,14192.3939500015308101,grid,False,11.95089,8.16942
587,1411258,#503979433,0013A2004164D651,Yamba Ngeba,Senehun,2020-12-08,0.3,1971.21,3036.866676190485704327,grid,False,11.94407,8.16763
588,1411259,#659366885,0013A2004164D60B,Lansana Foday,Senehun,2020-12-08,0.3,1971.21,11413.621961428063076757,grid,False,11.94823,8.16858
589,1411260,#140371898,0013A2004163D91C,Micheal Bundu,Senehun,2020-12-08,0.3,1971.21,9608.2609871428598391,grid,False,11.94666,8.16852
590,1411261,#359834725,0013A2004163D7F5,Alex G. Kandeh  3     ( JJ BLOOD),Senehun,2020-12-08,0.3,1971.21,-44210.33824,grid,False,11.94324,8.16725
591,1411262,#965315570,0013A2004163D7F0,Aminata Gbla,Senehun,2020-12-08,0.3,1971.21,5175.034297142862369196,grid,False,11.94893,8.16785
592,1411263,#570431044,0013A20041637F5C,Hassan Tholley  1,Senehun,2020-12-08,0.3,1971.21,-62174.88733999999994899,grid,False,11.94619,8.16894
593,1411264,#543372730,0013A20041637F36,Albert Gegbe,Senehun,2020-12-08,0.3,1971.21,2165.80809199999994899,grid,False,11.94732,8.16986
594,1411265,#569223513,0013A20041637F1D,Prince Tommy  (PRATT),Senehun,2020-12-08,0.3,1971.21,-17662.4,grid,False,11.95385,8.17009
595,1411266,#287662647,0013A200416317A3,Alieu J Smart,Senehun,2020-12-08,0.2,1461.11,2422.500658571427766928,grid,False,-11.9441,8.16805
596,1411267,#441303908,0013A2004163173C,Fatmata Zokar,Senehun,2020-12-08,0.3,1971.21,19637.34243548990107121,grid,False,11.94807,8.16887
597,1411268,#883104640,0013A20041631736,Ambrose Fogbawa  3,Senehun,2020-12-08,0.3,1971.21,6608.18680000000107121,grid,False,11.94713,8.16854
598,1411269,#708992778,0013A200416316AA,James S. Tommy   (HOUSE),Senehun,2020-12-08,0.3,1971.21,5227.7741755714276241,grid,False,11.94751,8.16848
599,1411270,#785279025,0013A20041631697,Rachael Abbie Bangali-Muabay Farmers Developement Association,Senehun,2020-12-08,0.3,1971.21,-65379.59492999999943889,grid,False,11.94383,8.16743
